<?xml version="1.0" encoding="UTF-8" standalone="no"?>
<!-- Created with Inkscape (http://www.inkscape.org/) -->

<svg
   version="1.1"
   id="svg178"
   width="238.90329"
   height="163.43039"
   viewBox="0 0 238.90328 163.43039"
   sodipodi:docname="templeos.svg"
   inkscape:version="1.2.2 (b0a8486541, 2022-12-01)"
   xmlns:inkscape="http://www.inkscape.org/namespaces/inkscape"
   xmlns:sodipodi="http://sodipodi.sourceforge.net/DTD/sodipodi-0.dtd"
   xmlns:xlink="http://www.w3.org/1999/xlink"
   xmlns="http://www.w3.org/2000/svg"
   xmlns:svg="http://www.w3.org/2000/svg">
  <defs
     id="defs182" />
  <sodipodi:namedview
     id="namedview180"
     pagecolor="#ffffff"
     bordercolor="#666666"
     borderopacity="1.0"
     inkscape:showpageshadow="2"
     inkscape:pageopacity="0.0"
     inkscape:pagecheckerboard="0"
     inkscape:deskcolor="#d1d1d1"
     showgrid="false"
     showguides="false"
     inkscape:zoom="2.4737107"
     inkscape:cx="67.914167"
     inkscape:cy="102.88188"
     inkscape:window-width="1916"
     inkscape:window-height="1040"
     inkscape:window-x="0"
     inkscape:window-y="18"
     inkscape:window-maximized="1"
     inkscape:current-layer="layer1" />
  <g
     inkscape:groupmode="layer"
     id="layer1"
     inkscape:label="cutout"
     style="display:inline">
    <rect
       style="fill:none;stroke:#ff0000;stroke-width:3.78;stroke-dasharray:none"
       id="rect952"
       width="235.12329"
       height="159.65039"
       x="122.07993"
       y="7.0624385"
       inkscape:label="rect952"
       transform="translate(-120.18993,-5.1724385)" />
  </g>
  <g
     inkscape:groupmode="layer"
     inkscape:label="Image"
     id="g184"
     transform="translate(-120.18993,-5.1724385)">
    <image
       width="234.3307"
       height="158.74016"
       preserveAspectRatio="none"
       xlink:href="data:image/png;base64,iVBORw0KGgoAAAANSUhEUgAAAooAAAHqCAYAAACDaG9LAAAYyHpUWHRSYXcgcHJvZmlsZSB0eXBl IGV4aWYAAHjapZrplRw5doX/wwqZgP0B5mA9Rx7IfH0XWeQMl5aaPayujOrMyAjgLXcBwp3/+e/r /ot/1bfmcrFWe62ef7nnHgd/NP/5N95r8Pm9vn9t+Pj17g/vuzO+/owcE8f09YX6OYZv73994dsx 6Hvl3y7U1tcH88cPev4cY/vpQl83ShqRxra/LtS/LpTi54PwdYHxmZavvdm/T2Gez/Hr+58w8Ov0 0vc71Yf+NZqf/j8b0duF+6QYTwrJ85pS/Awg6Te5NPgj8RpT04n8DP7f81qSfY2EgPwuTt//cUN3 NdT825N+yMr3v37K1ldkmNpP2crx65T0U5Dr9+Nv33eh/D4rL/T/dufcvpfJD+/bCPUzop+ir997 d7tvzsxi5Eqo69ekvk3x/cV5k1vo1s0xtOqN38Il7P10fhpVvSiFTRAmPyv0EEnXDTnsMMIN5x1X WAwxx+Oi8UeMK6b3ZksWe1xkLaSsn3CjpZ52auRzvbTnFL+PJbzbdr/cu1vjzjtwagxcLLwi+MMf 96dfuFcJD0GxXJ9YMa4YFWyGoczpldPISLhfQS0vwN9+fv6nvCYyWBRltUgnsPNziVnCv5AgvUQn TiwcPz0YbH9dgBBx68JgQiIDZC2kEmrwFqOFQCAbCRoMPaYcJxkIpcTNIGNOqZIbOolb8xUL79RY Im873gfMyERJNRm56WmQrJwL9WO5UUOjpJJLKbVYaaWXUVPNtdRarQoUhyXLzopVM2vWbbTUciut Nmut9TZ67AnQLL126633Pgb3HFx58O3BCWPMONPMs7hZp802+xyL8ll5lVWXrbb6GjvutMGPXbft tvseJxxK6eRTTj122ulnXErtJnfzLbdeu+32O75n7Sutv/z8QdbCV9biy5ROtO9Z412zb5cIgpOi nJGw6HIg46YUUNBROfMt5ByVOeXMd+Avlcggi3K2gzJGBvMJsdzwLXcufjKqzP1HeXOWf8hb/KeZ c0rdH2bu17z9Lmt7PCBOL0PqQgXVJ7pv9xHbiHOndELTn7Cu/3Z0P7/xJ8dhKsZe7zjDpWlkiTdg So1s5L0bmZg9zbjXTKPUHtIZDCSSgQhz8m4/Le155q5ztFmvd5vAQojWp0U7OxCACJ9FGvoOOzHO mjJw2CavuY29A4l/tw5nLJsEO5And9qKJNEyF0ynT1IHnK4WOdpdcbZjpD0apbAT9RbvoC78KCWU ky0YWRvzOEog5EXtUhGQVArt1rNLHn2ds2Nu6yyLayF4bHOjshu1UEjNHD0d062p5+xKyAUW/1cM F5S/vGavt1AT8W8d3W8+GIti6ZdCbdk66Y8wmHD6eGOeUOL2gxqlNyq1vo6vJTvFlqjG1Km0lWsN ra40Z8l95Hvo5XbmgGcW2o6LWNjpnLvWUv5v3qSZiS9HPlv3lq5BX3xrA5yFCqEoAdsZxj5tG6Ht RjP2WCcVXwdjmrnsMXIZQXNxJLSthlSbwnPYGaYmHQ0mpRhW7ZTRqfmMdDZktM/SNH27lMc6M9qK e8STHUVJSvsVhwpuXjTOO5lA0Ua2J6QLykAYda/AuOe8h4nGUkc3Yhm4qpOgvb3Y5MZXA6ZaZqw1 tUusyfJew5T6mRY3oJ3rLKNB2dy6Slw06Px2Z2ndM+8a45wpWKAPIq3eF98Oc0+wp9EPN+i8M8u6 AFMYdiuYcpCYi/Gd6MJN98ZP8id58usv27SXQmdQuzQdpRZAPMlgRnX8dhFUYpB01+N2uqQMILpX CDOVvbchP3K6aFG+mwJ1vue+nEZcV7spA1mpLzeRM330fBhlEspwlgXuFYDX0ds8BI5J3jnSojh3 9rcQrLxaJhoLUC4U3nEt0CoH3KytHJvmEUiAZDKAFYjJgosKmAhIAV8avcbK8cAuYVJ/HBlTcTFf cKKjvrq/rUsW0HwntrbWnUiBcT242o6HGzYMsHtfVCapZdwnt31y3aO5sZg04EqPFshj1FB66DR+ rTRdQZO0Qpekbf3YXkZIcma+aXVEWa7wVyjgg1vDtwRGL9poVIqh+m1ttrEOI72whRfitR1VpAmZ BcZTeTlz/i6dgrkl7+769FCPwZigySFR6Uxudvu7N/CT6qqxrxjVQHQSIToqhhTVv03VxdS3K9Qe N/CV9iLttHXHGFHLNOzNJ407dzbIhbnfVuMKkCNfzMcjUSnCsshRWA4tkQdMxHTTTADJzaLC13Sc gTfiq9A/hZRsA9s0CcELqIXOzcemS+nz6gj0LTDegBSYNRgLUm0QxHooM4IlHkjtAfDgsjTTuIea ngVatXJ7pGHs5OtAqNKYmL+27HYY457dm88LzkUv5tk89L8X1opCJScEe8dJcYx+kBGkYM1p7tIC dN2keuIFwoRj3hr1tggabU1GoAEB31aDkzcAAFTb9YZNDoy+wKk4gpaoqlWp6lHzpQ4KSLDHLJ3R gMmMj+RQLEzgGnhAKODCdPnCJikooDi9UzGhiC6WgVQyptqBgN52S6e2TJ/fIY0zA2DeGQmoXecW qRW6MFmTsO3Z5XouHDmDAOw0OFGF0QcUwjRPQmSXSTtExJkIbHaECuUPK1980JFVISvDAfcxrFRp VkTdBUg3IDYmkSoXkV0PANwAgQv3dFU5rHJFwoyr0/Y1dOkwVzumiMIZk0lDPudAIJIPfos4gHbu iQrkfl5aiuqRKQ6kL+A4QHw03JjVjX5fJSJ5oN8ogFyvZDcTRf2hGk/uvihPNCJKYtJxSSAji2/P YjNN17fFiZpg5NAkTI4qm5RZhgaobd+564QbMGH0MW0YNQXbsNQ1gbbCBVE6ADMVA9AvlQzWUHpz BlQD2YTk4NEohDIxWDsUtf5P6ww/Hd0vH1zAB6GafcMIcmvM5wL9ib8BbWNbXpv2wuBQbL0yVeTm MBfAz08plrE6aBqJaN8nAAJjNa1nEKiMfgFdifdEZMsH8w6KljqR1FpIv6yR46LXNpCGakX5UZUJ IR7j8MghL9EGRVPvEkkRfH2ytPaY4RqUL4U2XQPPkPQTmQ9AALGdDtj5ohl3EBGNUySZuQmdOsl7 3+jNjfxG2ez+JBlawu0MhEF7XEFTNdBib+6byH/EBqg+yT0m4gyrND6SnQJh7E3JRg5IDKXkXnpJ GEgLt6GRRmdW3O5afhkYgxDQs9Kf4cgSdyLq+/fsnAwUBlTtk6jQJNBO3BD4iNJQMS/IIHRiwb9D uNQL9Zg2jZ1RVEvMtFCy6FPIqg30kZ8HgKFHLwZmRxKMDhmjoooAhYlPOAI9YoYWHSAO/ZPj6YHb I7WTB38rFgLxJNV4OWEA3sjaAqao9emxDqF5lNAGYAfAQS1XuYrdRBNJypW0CiWdVAPaN2GDkgxK 5gUtd4VYFxEB6G3cyIqlEZiWxdRAJdxHYmsuQmLkKA4St4CIA54A9ULbackLiUCnKRZ2BO43dyTs leNLl1HeiH5oSx6uy9Ei3WBaCnodgddSHoJk/V921F8dS3BgEQMHHdChYKqK1S+cANUW1eB+Uz6D sG7qRraOhgalKTssxd4DecEfZs6IEeTRCQYMGAfapxqxrVAmIgNzC5MiOiNzRDkhnFGPJJZkVoBt XmzsYTDOQ/H0EqOxetFMPlNI5Ju+DpfrYB3X6bzAojPVCezMCqlgn/gaPVhpwXOPA1xHvRQ6ZYEl rWSoArojLCYrB1clkT130sWQAQSRqHJRW2tmBPEsCex0FMfMRMIzIzAcAJv1ZFlz5CtCaR2cVp6U e8CuoTA6Mtw8IApV0B73yKKvStaONA0gi71eA3Fed41wWBLPSYskwhKteDzIQoEhamjcSDOCppKK XJ3z3MRoYPRgHYgRfsGEo2Gg+aIVtQiPQ0INdg1YmnkASrAYYlY7SAmpqjdsTbDblUeci2oFJyr1 BKgaohLyr1ElDp/DglH2FgWGdE/oZ7w+pTEKqArFXgdbdK4Dv4xa+jP/0itg9Ft68JnmXs2/eaJC yy4IOawOfAY54PSJPz1bnHgCgwxzQ2S1CokR5fxF1Gke9FFU2xlKE0bCr1B1Wrig9zbalJEidylj B6tN7DkgDpcjtVUzJ8qEh5HgBTQtDY9eIkW0XCX05VQmuW9taG8DusGVhWCHXquAFzl/8CMROkp+ wMDJJPQwk7gulHqpDfzkEoTUc6kB2M+LmMw7h6a1EY+YmG9pCnVHx40kV4jWVVAC1v2qlItHhl6w BbhrfJWQiI24EEA9jvNoKUa21YRT4sjgDm5sZ2GAoT9gBW1iqNSkUpDjIDxQ25QJmxHJh9kbDtkW c0CYQSzBBHNoh21TBukKbaladDVYBQGjU7rEP6XCyC7qq887A3Ztu4FNVjHvMAWAtmaL6Jm+LtIU TTDUY9dvyVCqv24ChQY4GWTGtAnjbsBtOhi2P6ZBoiK9tH4EEJpgn469MnATt4Pi47cY1Y9C3YVK p0eZMTA9eT3OWolIHZLPWNGHaEqkFB9X6i1twokg65L6qMCsKFO6JH8qM1OL3jhVguQkEdUvzEra hr/Ie9VxgldP4CE44S+a8Ua5GPhjdy1IGqIaNWVa7J6OMRAyqpaCmeoCf4cX+1J1Hs6lOlOXD6CB ceuLLNPxcp1Uhl28NLTGZ06aBjEHMiDwGJSvaDvgcYTrBy5GlEObIDwxmJQnFtSblpim5AL5CwKV lWiRDCpiaDOa/wPVeKpaZN6h8AlUo5xPpuYxCh2JRMRQYLBj8fRA0ZYNQtvVWukH8SPquBjzLApI xFZipKWDliYBRiP7ZGPzFW6ACAyXuCVUWR0ruq3BRCJdgRJMgG/+XKhJOwVIWyiZeNO/fUG2+Qxp IYoXJYAZAaYJK0ZyDVfUrphd8jsheIg0hB8Zh/zBOSM3WWRgvGldBOXCFxGUCPSjinPUBGKCikIe NJmLlcNWqNZLpzbKNqSIVGb8oHkhFVpnnXh0dJnl2fE3dp22E2DtSmtjyQjf7BLkI/muMaMAYQnA n/rQhLQIcRkv1oFb0qJ+oFSpaVcywHYzCvS8NRAg4/667vnrEZ0J7zPcRC/c1V1shEZx8FipS4Ex cXDj3iC3h0ADDyrOAflcEIQ44gx110qRH6hfiqDHPZeL0jLwO81gdFwiFpAMEB1sHI/cXaQkqZH8 APvwsjcQaCp4bTQ03LGwcaO6ox6nWFFl0DN9f6h8+nVq4aOuQMfWXZC+43LBt6skgbWbFkzIA1Fc SH16jfzvZzmC1tnplkyCIb3h61ZTASlf1IFiB6ltFZn/s+EZYE8bZ5QOdj0i6xfOXkV/4MAEKKDK iFZtuDw119uLozqwB5iUhYO/TAFvzOCswdOSNUDRc2jo5rkJEfobkEDZL+FioYIWgzkPp+OCptE5 x4Pv3uMdMaQpZbGzA2db2YhcL8GE90RMT8lJmmBp5QH8ALd2jBkoOGCp6b9G7yWUz6U9vRaGcUdI EyTWQUPRAmgt6qGs0mD8mbT6oD2Dt/qPDjJtxnYyPCSWcS1EzZgZ0q9ej6JFrMaN8iYvSNHETBed ipocpBj13t6qs+CAa5Hdu70hx2nsAvILDhwOvUoRIHVwemg/Oik2FHpWmWZuAgshWGANmgfNAmMe /zC0FIKeYkjH445QNQ2fUDXRJO6gBikBIpxK3qhXJCkYCBECLK8WKrqJFFtA0nnBRYHTvSM2kJXW C2h+FIPvb50Pt+m1sYoAgU4CIBwEqwWLGLFZmBek4NAqK8JzwBBO8EgFBq2HIB8x3doMBdQgbcwR AhT3Oj2fITrmGIIWMLvhAQ79KPYH3Vd2pSLQIFFEzSywve5AEI1TsL/4V/gE8O3aSkRsUd79eGId kaGrt3hSqfAXdp366MiSIw9Eb1StkVOgBOmu+2yFCB3z5pEW2itCOYJO2h8AioAdEXHojsbJtDCU iqtE9QH2E3uPZ41GAyLnD6Intk3da5lT5bmg5x12kf4tsaATuZC/2p+QZOvUMcb+4u3wbU0eX7s7 tAqWYqK3yR5fhtoLjdcrTMqgBmCMq6zQkWRyJ4/oPSmgG2l2EKfh6FFh5AV6AlEuNpaTj5hrQdNR sfJGzWNdS3MwbLAIHuP4aSlAPi2Q38As5sYMaAwteXDzzPeAH6QDhnClHJBkp9OlE2OCiGhgT2pa ugVetGeGX70nUqET44fiLgUz1bdM+iEjXhrxogvQCGCcV21acU+LA3J9aVMuknLcoWZxvFbsnv/H S05tWZ237WE2GWjv7b7VjymuusHxeaVQ6b3Wn2jNTTCMBAZsKmf7Z4gPwjJQ9TOVQ/L4PpAtqcA5 OMGdHYNAh46aLXldDGt0GDQZoCn2ll9AAp6AEsLB4KO5MqVHz3dk70WYIeFICaaGckaOBz5FAnTw HFAcA9jhHe+P1iQx7SQ/E0Z6jPwh1DP9RA3hyfbSipAj8qRXa5NerlTFjG0BfzyCZuBE4Bq4TUvZ 1WQXtUiLpUJ2HD2YQii7X/s4LcOR/IhBj9iJ7ck99QKWknmwA0W5RtSWJpkEYhRQLbxR2zQBNnC/ 3XZ6DaWzLlp/W0ICDO2WgcVKwfByRUbXw1OcFKj8SRUrJcAneo3E1AlmhwWMPAxfWmPBACEHvdZn ad6s/a+GtdVjFnIVCDjDN2rtC3N9rgqX5KbG3Ut0ndYC5JDTVJ2WEVHwW3uG2AE6e0BOWiOlHWeX 5cqBwhGLTx8w3PKdqaXTHF0KultuohxRS0E4Aqo5SilApkxkIOWfN9fjUqtBFBJ/QSg/SzUMw7rO Y1m3Hk9oNCaZbksrc/QFLdKJ1JUQnECLSfF1BEbJsi9CkskVY35bfZ2pPRG71cWMHNdU3o4PfhTq Xmh7io7PcKR0MaYec4n/TDV8tJKwRHzg/oON43ecxJNMRBd2jqjLlalKA+mkx6+cMGYfbs44iKo9 hxtqAJFL0Lo8sDux4VCAXFuktbPbeCN6XjvpPp1jspHonTiLJlmLrCUqmAgjFTB+STRN3lFqQPfJ mSpt8IODJ5ospJaf8LGw66EBEr7iwD2E6k56mra3w32q1KrMUBL/c8kwGu4k9uFkErtWJYQad+Ij tFZ90SV6JIPYBi0qai3oToAztQCAI+DfisY+2EFSgZVwu2X6PCAML85n0fL9s4iaFc0jHfy3Iu/+ YcpKgccQ2R7WmtpFRER42QMUJAWIkASmo5brfckGxiMJUGR3+hX1Ns4wQxcGLqMEJqwQsL2AdHIF S5SGjDFUFXEFIBg2Q89P4Cqoe+gYo6iFZy0BafPn7eWORpXAL7hsFENH1SJJoqdCEF7YOYkVPKce RZAgRZVZfFv00N/iWkH6EFgYoFoRP1cIYkdfnRZCtSbeMoI30tO3ajNWDzN81jgBnPIsdkJ5Ikk6 qIGmx1ICudA9yVMrO+5iSKq3TTu3VnK0RIltIG1gyFuh/OzidhjorVRm7389ur/64P8/4qDsqr1A qzC1wQKHI64Q/1ogSG28Pfzd9kYT6zkUFCRRZhaEU+utqJ+mvXUEjcqZqMYIQq5WaJP3Pp2ARqcJ xFEUO5hFrPTY4qINqA+ktz1PCS3Vdz/CObK0v2uN1AbGmP1B8Sd0Ha7XtOHOt732ZCi9SlXpgQ/A j7TV3S4BRGmjt2sYDIoW6QBdQFtlrTXs4OlgxrJp1URvwzyQyYFYtTcUtNc3Dsa935mYs541qFIg zUEZKhmcGni5ReCTHyA1+CC3j8dC427tj+KPuJ48D0itXcvBd73MeG7FdS1R4EP0nBnhOqpeSbgp 7UEPwNjcZ8nT095euy5XnGciQTFnVBdt6gj1aXUayr7LfGqrC0CKFQjQ6hn4JRuVoEamhTGsEgVv UxsSDGo6/NNJLgXqXuS8AzT5Fror7PrHleX+9Av0mJ6EKLnLAGrpqKE95nSDeaEXsrQN8QEfd5/a 3L0koDKXVArd2nBLtCtypFMSTetglOzyB0hEQkPZyC68ApIJmmdW2g+UXbKKkNx6+gVtc86RvZYk sDXv27AETbwyp8W7O/xwK9P0WprPPcg8L+0EN0qW8zmLyjGSqHVuNHZ9D5xICCJgEAE0l1YfErLC qcJ4a2oR5+hJAFQErUP7Z4+bgbOsn/S2C7VSy2zxt0vsi2yWUGDQ8WoLemE/SC3Mt04rWoM/6LmO l0FWBgKjvXZgFhmNynuK0D/T17i4ulzbPL25hcxLWm9pu2sTBvEKx9ysJzqpYuhNj8sQAOMXhqSo ZVMm4bvaO1hp02moWlo8dyRN/dqnRNHaP8GnvwtsgL4pWg1ShQdQNwDCXU074MDGKg7coSCIjp63 qkOP2TJBvhk2tqRiRVc7Qr+r3VqAmfKjHImOkliw61O7llyo44f6NOwQWfPTE77OmdrqVYvrwT49 35KHtjiOtga31rthBCTpW800kGRwISRUD4MU9aqGrH1qK0p7nnDLkmXilp85rvwHG75/dmQcuAjk BOkX2MDGyMQE8GU9ygiNBsHgRCdhBZJWSq9Rm/y8p9KGHsT64Xkz9/efVPu/j1wo3Xt3d/8L8wuQ kIJh/msAAAGDaUNDUElDQyBwcm9maWxlAAB4nH2RPUjDUBSFT1OlIhUHM4hUyFCd7KIijrUKRagQ aoVWHUxe+gdNWpIUF0fBteDgz2LVwcVZVwdXQRD8AXF1cVJ0kRLvSwotYnxweR/nvXO47z5AaFaY bvXEAd2wzXQyIWVzq1LoFUFEIFKNKsyqzclyCr7r6x4Bvt/FeJb/vT/XgJa3GBCQiOOsZtrEG8Qz m3aN8z6xyEqKRnxOPGFSg8SPXFc9fuNcdFngmaKZSc8Ti8RSsYvVLmYlUyeeJo5qukH5QtZjjfMW Z71SZ+0++QvDeWNlmetUESSxiCXIkKCijjIqsBGj3SDFQprOEz7+Edcvk0slVxmMHAuoQofi+sH/ 4PdsrcLUpJcUTgC9L47zMQaEdoFWw3G+jx2ndQIEn4Ero+OvNoHZT9IbHS16BAxuAxfXHU3dAy53 gOGnmmIqrhSkEgoF4P2MvikHDN0C/Wve3NrnOH0AMjSr1A1wcAiMFyl73efdfd1z+/dOe34/qShy vLeaOnQAAA14aVRYdFhNTDpjb20uYWRvYmUueG1wAAAAAAA8P3hwYWNrZXQgYmVnaW49Iu+7vyIg aWQ9Ilc1TTBNcENlaGlIenJlU3pOVGN6a2M5ZCI/Pgo8eDp4bXBtZXRhIHhtbG5zOng9ImFkb2Jl Om5zOm1ldGEvIiB4OnhtcHRrPSJYTVAgQ29yZSA0LjQuMC1FeGl2MiI+CiA8cmRmOlJERiB4bWxu czpyZGY9Imh0dHA6Ly93d3cudzMub3JnLzE5OTkvMDIvMjItcmRmLXN5bnRheC1ucyMiPgogIDxy ZGY6RGVzY3JpcHRpb24gcmRmOmFib3V0PSIiCiAgICB4bWxuczp4bXBNTT0iaHR0cDovL25zLmFk b2JlLmNvbS94YXAvMS4wL21tLyIKICAgIHhtbG5zOnN0RXZ0PSJodHRwOi8vbnMuYWRvYmUuY29t L3hhcC8xLjAvc1R5cGUvUmVzb3VyY2VFdmVudCMiCiAgICB4bWxuczpkYz0iaHR0cDovL3B1cmwu b3JnL2RjL2VsZW1lbnRzLzEuMS8iCiAgICB4bWxuczpHSU1QPSJodHRwOi8vd3d3LmdpbXAub3Jn L3htcC8iCiAgICB4bWxuczp0aWZmPSJodHRwOi8vbnMuYWRvYmUuY29tL3RpZmYvMS4wLyIKICAg IHhtbG5zOnhtcD0iaHR0cDovL25zLmFkb2JlLmNvbS94YXAvMS4wLyIKICAgeG1wTU06RG9jdW1l bnRJRD0iZ2ltcDpkb2NpZDpnaW1wOmM0YjMwMGU1LTU5YzEtNDJkZS04M2MyLWFlZmY5OTc1MTUy NiIKICAgeG1wTU06SW5zdGFuY2VJRD0ieG1wLmlpZDoyYTY4MTUzZi1mYTc0LTQ3MWMtOTUzZi0w YjliYjQ5M2I2ZjEiCiAgIHhtcE1NOk9yaWdpbmFsRG9jdW1lbnRJRD0ieG1wLmRpZDoyMzcxMjhj MC02MzgzLTQ1MWEtOGI0Yi04N2RjMTMyNmQzYTAiCiAgIGRjOkZvcm1hdD0iaW1hZ2UvcG5nIgog ICBHSU1QOkFQST0iMi4wIgogICBHSU1QOlBsYXRmb3JtPSJMaW51eCIKICAgR0lNUDpUaW1lU3Rh bXA9IjE2ODAwMzU0NTc5NDk5MzYiCiAgIEdJTVA6VmVyc2lvbj0iMi4xMC4zMiIKICAgdGlmZjpP cmllbnRhdGlvbj0iMSIKICAgeG1wOkNyZWF0b3JUb29sPSJHSU1QIDIuMTAiCiAgIHhtcDpNZXRh ZGF0YURhdGU9IjIwMjM6MDM6MjhUMjI6MzA6NTcrMDI6MDAiCiAgIHhtcDpNb2RpZnlEYXRlPSIy MDIzOjAzOjI4VDIyOjMwOjU3KzAyOjAwIj4KICAgPHhtcE1NOkhpc3Rvcnk+CiAgICA8cmRmOlNl cT4KICAgICA8cmRmOmxpCiAgICAgIHN0RXZ0OmFjdGlvbj0ic2F2ZWQiCiAgICAgIHN0RXZ0OmNo YW5nZWQ9Ii8iCiAgICAgIHN0RXZ0Omluc3RhbmNlSUQ9InhtcC5paWQ6MTRhNWViMTEtYTRmYy00 YTE1LTg0MjAtYjcyMTUzNjc1MGQwIgogICAgICBzdEV2dDpzb2Z0d2FyZUFnZW50PSJHaW1wIDIu MTAgKExpbnV4KSIKICAgICAgc3RFdnQ6d2hlbj0iMjAyMy0wMy0yOFQyMjozMDo1NyswMjowMCIv PgogICAgPC9yZGY6U2VxPgogICA8L3htcE1NOkhpc3Rvcnk+CiAgPC9yZGY6RGVzY3JpcHRpb24+ CiA8L3JkZjpSREY+CjwveDp4bXBtZXRhPgogICAgICAgICAgICAgICAgICAgICAgICAgICAgICAg ICAgICAgICAgICAgICAgICAgICAgICAgICAgICAgICAgICAgICAgICAgICAgICAgICAgICAgICAg ICAgICAgICAgICAgCiAgICAgICAgICAgICAgICAgICAgICAgICAgICAgICAgICAgICAgICAgICAg ICAgICAgICAgICAgICAgICAgICAgICAgICAgICAgICAgICAgICAgICAgICAgICAgICAgICAgICAK ICAgICAgICAgICAgICAgICAgICAgICAgICAgICAgICAgICAgICAgICAgICAgICAgICAgICAgICAg ICAgICAgICAgICAgICAgICAgICAgICAgICAgICAgICAgICAgICAgICAgIAogICAgICAgICAgICAg ICAgICAgICAgICAgICAgICAgICAgICAgICAgICAgICAgICAgICAgICAgICAgICAgICAgICAgICAg ICAgICAgICAgICAgICAgICAgICAgICAgICAgICAgCiAgICAgICAgICAgICAgICAgICAgICAgICAg ICAgICAgICAgICAgICAgICAgICAgICAgICAgICAgICAgICAgICAgICAgICAgICAgICAgICAgICAg ICAgICAgICAgICAgICAgICAKICAgICAgICAgICAgICAgICAgICAgICAgICAgICAgICAgICAgICAg ICAgICAgICAgICAgICAgICAgICAgICAgICAgICAgICAgICAgICAgICAgICAgICAgICAgICAgICAg ICAgIAogICAgICAgICAgICAgICAgICAgICAgICAgICAgICAgICAgICAgICAgICAgICAgICAgICAg ICAgICAgICAgICAgICAgICAgICAgICAgICAgICAgICAgICAgICAgICAgICAgICAgCiAgICAgICAg ICAgICAgICAgICAgICAgICAgICAgICAgICAgICAgICAgICAgICAgICAgICAgICAgICAgICAgICAg ICAgICAgICAgICAgICAgICAgICAgICAgICAgICAgICAgICAKICAgICAgICAgICAgICAgICAgICAg ICAgICAgICAgICAgICAgICAgICAgICAgICAgICAgICAgICAgICAgICAgICAgICAgICAgICAgICAg ICAgICAgICAgICAgICAgICAgICAgIAogICAgICAgICAgICAgICAgICAgICAgICAgICAgICAgICAg ICAgICAgICAgICAgICAgICAgICAgICAgICAgICAgICAgICAgICAgICAgICAgICAgICAgICAgICAg ICAgICAgICAgCiAgICAgICAgICAgICAgICAgICAgICAgICAgICAgICAgICAgICAgICAgICAgICAg ICAgICAgICAgICAgICAgICAgICAgICAgICAgICAgICAgICAgICAgICAgICAgICAgICAgICAKICAg ICAgICAgICAgICAgICAgICAgICAgICAgICAgICAgICAgICAgICAgICAgICAgICAgICAgICAgICAg ICAgICAgICAgICAgICAgICAgICAgICAgICAgICAgICAgICAgICAgIAogICAgICAgICAgICAgICAg ICAgICAgICAgICAgICAgICAgICAgICAgICAgICAgICAgICAgICAgICAgICAgICAgICAgICAgICAg ICAgICAgICAgICAgICAgICAgICAgICAgICAgCiAgICAgICAgICAgICAgICAgICAgICAgICAgICAg ICAgICAgICAgICAgICAgICAgICAgICAgICAgICAgICAgICAgICAgICAgICAgICAgICAgICAgICAg ICAgICAgICAgICAgICAKICAgICAgICAgICAgICAgICAgICAgICAgICAgICAgICAgICAgICAgICAg ICAgICAgICAgICAgICAgICAgICAgICAgICAgICAgICAgICAgICAgICAgICAgICAgICAgICAgICAg IAogICAgICAgICAgICAgICAgICAgICAgICAgICAgICAgICAgICAgICAgICAgICAgICAgICAgICAg ICAgICAgICAgICAgICAgICAgICAgICAgICAgICAgICAgICAgICAgICAgICAgCiAgICAgICAgICAg ICAgICAgICAgICAgICAgICAgICAgICAgICAgICAgICAgICAgICAgICAgICAgICAgICAgICAgICAg ICAgICAgICAgICAgICAgICAgICAgICAgICAgICAgICAKICAgICAgICAgICAgICAgICAgICAgICAg ICAgICAgICAgICAgICAgICAgICAgICAgICAgICAgICAgICAgICAgICAgICAgICAgICAgICAgICAg ICAgICAgICAgICAgICAgICAgIAogICAgICAgICAgICAgICAgICAgICAgICAgICAgICAgICAgICAg ICAgICAgICAgICAgICAgICAgICAgICAgICAgICAgICAgICAgICAgICAgICAgICAgICAgICAgICAg ICAgICAgCiAgICAgICAgICAgICAgICAgICAgICAgICAgICAgICAgICAgICAgICAgICAgICAgICAg ICAgICAgICAgICAgICAgICAgICAgICAgICAgICAgICAgICAgICAgICAgICAgICAgICAKICAgICAg ICAgICAgICAgICAgICAgICAgICAgCjw/eHBhY2tldCBlbmQ9InciPz7hcR/6AAAABmJLR0QA/wD/ AP+gvaeTAAAACXBIWXMAABJ0AAASdAHeZh94AAAAB3RJTUUH5wMcFB45CpGvFgAAIABJREFUeNrt 3e1RI0mzBtCeG+vC+gNGgBEYhBGDEeAPRuz9sW/PFklmVbXQR0s6J2ICkFotIUboIasq69fD+/s/ CwAAN+/j8XFZlmV5eH+fOv4vTxkAXIeXz8/l6elpWZZlefz48ISw2WxAFBQB4Eq8Pzz8+fzt7W15 /ftvTwpnISgCwM7DYRsS4Zz+z1MAAPsKiC+fn+l167AzCIoAcGfhcK0iZoFwrSYKi5yToWcAuGBA XPXCYXv929vbspijyJmoKALAGa2Vw/eHh+6cw7e3ty/h8e3tzUIWzk5FEQDOFBBj1bA3jNxe96Wa CIIiANxGOIyhb2auYRxyjtVFOBdDzwBwZOvQchYIn56evl2WVQqziiIIigBwxeHw5fPzS9WwDYHr PMNeKGyPjbeHc/tlr2cAOFw29/An2oAYz2vbPs5NRREANlqrh+8PD1PDyNl1s5XCqgoJ56CiCAAH BMUs0B1SWYxDzNnCl5XWOAiKAHClIbE3bLwlOK7iuQw9c26GngFgY0iMlb4Y6GZCYjzH7JA1CIoA sMOQ2Bserppit3MMe9fF4KmayB4YegaAyaB4qJmh6OyYNoQKilyCiiIADKw7rMQAl1UDt6xmzo5f q4yGm9kDW/gBQEc2L7E3FzGrCo5a6GTNtW3dxx6oKALAICSuwa2dOxjFKuCo3U1siVNVEFUXuSRz FAFgIiieQ1tBjCFSD0UuQUURADaExJnq3uiYmdXPbSVSSERQBIAdhcRRn8OtYbC9rJrbmF1u2JlL MvQMACEkZmGtWlQSh4vjnMTeYpRsgUx2W61xEBQB4AqD4lazi1zaBS6GnrkUQ88A0AmJbXjLgt1M KMy+bvsotsPOhpoRFAHgSkJiG+a2hsOq7U1ss9PbO1o1kUvScBuAuxd3XsmCXRsWe6ExXpdVCntz E2FPVBQBuHtrEOwNFfeaYlfac7aBsA2ctuxjzyxmAeCuvXx+Dqt61QKUmWpgNfScnSc71tAzgiIA XMChO69sCYnZ6ua4fV8vmGqNwyUZegbgLlXzEnuNsle9/Z7j570FK1nvxLgKGgRFADijtZI42jqv Jxsuri5rK4RZhTE7/u3tTTURQREALqXXv7AKgL1gmQXCqvLYW7yiLQ57YY4iAHdly7zEdoeU2CKn OjYLh3Gourdd37LYso/9UFEE4G6M5iVW1cJRSIxmVlHHnVnWz4VEBEUAuEBIrALcIY20eyGwul17 P7FSecz9pEFQBIANfhrCtjTEjlXC3grp9ljVRARFADizal5iL/xVlcEq9MXK4WyfxPV6i1fYI3s9 A3CXIbEKh3FIuAp7VUiMl8Xeiu15149CIoIiAOwkJI6aWs/MWaxCZLY9XwyOh+wbDZdg6BmAm5Xt lLKGubaqtyW0tcGvXYjS3k9WRawel2oigiIAnNn7w8O3Kl4v/GUBsgqcWV/E3tfxHEIi10LDbQBu MiRmsiHgNsTN9D/MQmAvkFYBUkhEUASAnYTEUfg7RDVkPVrc8vT0pBUOV8HQMwA3b7Svcq/PYft1 /JeFwioktscLiVwLFUUAbkasJo6qhVuGn0f7PWd7OWeXCYkIigBw4ZA4Kwa/7Os16GXVwWy+YlXB NC+Ra2PoGYCbC4nViuXMaH7izMrptVVOVnG0fzOCIgDsyGhoePa261zE3vB0dV/xNqqJXCNDzwBc tbaamA0TZ2Gxtyq5/XpLuOydQ0jkWqkoAnC1Xj4/vwW22aHk0WXVUHO8j6wC2YZHIRFBEQDOLFu8 kq0y7gXC3u4pcau+9vYxDFatdMxPRFAEgB2ExC16PRCrVc+j22ahVCscBEUAuJBsj+UqFB4SJNuv Y4ismm6vFUghEUERAM5stpq4NSBWw8W95tlVMBUSERQBYAchsdfbcBQcq91U2iAYv47HtF8/PT1Z vMJN0R4HgKsJiVsWiPxkMUm1qKU9bxx21i+RW6SiCMDV6O3DPBP6shXK1e2rFjhZSFwJidwaFUUA dm9mXuLsauTs+GyxynpMtsdzFirNS+QWqSgCcFUhsRfWsoUnld4cxhgi29CYLXYREhEUAWAHITEL gzEY9vogxst7w86zi13gVhl6BmDXQbEaFu6p9nmuFqT0Qt8oDJqXyC1TUQRgtyGxFwS3hMQ18MWQ 2Nu3Ofs8Hi8kIigCwIVCYtbDcKRXAcyGm3tD0FXQFBIRFAHggiExhsPRVn0zYS+7bbUIJtvGb+vK arh25igCsNuguMVoDmO1X/MofGbnUU3kXqgoAnA1IbFXMdzSGmd2aHqtIrbVRCERQRHgpsPI6/L+ 8OqJ2GFIHM0XnKn6xd6HvVCYDUP3KpP6JSIoAtxBQHx7flteXh8Fxh2FxDYIxrBXBb1eWIzBMlvk UoXCGDDNSeRe/eUpAG7Zy+vj8vT7aXl7flveXpc/nz/9fvoSINfw+Pry7knbgUN6J46CZOydmDXQ zi5fQ6MhZ+6RxSzATYqVwrfn/4WD/wXENSy2l8djHj9ePJFn+Vk9fAtzo+A3Co/Z6uRqv+aZldWG nLlXKorATYXDLAD+eeP//dQNj+31b89vy/vvpQkKQuOpQ2IV7KoAOVNtjMdUu7P0wqlKIoIiwA0E xOXhKa0SxgBYhcZYbYz3ITSeLiRmFcDq82xHlUwVELPjeru5vKomIigCXF84jKoQ2AuNbTUxC4hZ iHz//d9lQuPPQ+JMYOupKo9t+Oz1Tcx2fzEvEf5ljiJw9QExBsVeSMwqh1WAjOerQuayqDIeGhSr BSYzoXA2RGZhtPq6JSSCoAhcaTjMqn/ZgpX4da9y2Augo3O2nwuNcyHxGEGwFwyrtjczjbmFRPiX PorAbsU+h22FL1b8YmDrDSPHc63HZxXJeFx73/Fc6/2t/Rr1aNwWEtdwF/db7u2/nB0T5y8e0m8R +Jc5isDOgsR/K5eXh6+Vuli5q6qC1Urn3mKVUXUyOyZbJBOva7+fe680xpBYrUjuNcnOVj5XsrmL M8PcWuHAfww9Axf38vqYBrFRcBvpLV7ZYrRSuvfYqtXU9xgaXz4/0wUro+HmmdY42bzDKhS2l8Wg acgZvjL0DFw0IL4/vH6rDlbDve1lcag4GzaeqRpmQ9DVeaqqYe/xV1XM94fX5eX18U9IvnXvDw8/ HtKtKotVhTAGwuz2a5Xx6elJSISEiiJw5sDwmgan3mUxnI2qi4dWEnuLVg65n1Fvxnj9rW4f+P7w MGyeHQPeMULl6D7aECkkQk5FEThbQGwXd4zaz7SXzcwNbD/OhsKpwFFUGdvvoV08E4+tVmLHy55+ P93kIpisqfbIaAu/tToYq4TV/WS32/qYQFAEOLJ1aHl25XIV5EaNtNtzjUJitrdz9XjiubNwGoPs KNT2AmMM1nHV9zWrdlLZEtqy+Y0zi1vi8fGxqCZCzdAzcHQx3IwC3MwQbhWoZs5fhcSf9FLc8v1s fZzVsdc2PL0uXjlUNXxcLVTJvh7dXkiEPhVF4Dih4H/Vr5fXx7K/4HpZbzi3DXLt11Xoy/oiVpe3 1b+ssterbmZNu6v7qxa/VI8rW1BTVTyvpdLYhsRDh3d7ezPHz7NQGBe8xOqlkAhjKorAjwNiVWkb bZFX2doKp6r29draxACWhcqZxSjVsfHyKjRnYbg3j7EKrXuqNMZ5ib3ehcfYiaXax7m97yxQ6pcI giJwkiDwOh36qsA2Wkwys+1evG6mLc3WYFrNaRzNPeyd6ye3H60U30N/xriP8zFCYHW+LCj2QuJK NREEReBM4XC0h3KvGja6vrdquHd5dl08XxVgty6IGQXZme+3up9RVbIXxC9RZcy26NvaGufPzy8J iVWz7Hh+TbVBUATOHBBHASgLLVnYqY6fHaI+xuKV6nGNgl8MobOBbtQKaOtwfPU8V8/VOSqNoy36 tuoNHfcWqnx5nsPtDDfDNhazAN+sO4a0C1N6IWdLgMsCVlxgEsNXuwAkC3y9BSlVi5uZUJY99t4u LKPvM17XaxUUv++qDc9sxfXUPRpfPj+/PwfJkG+1sKVqa9MGw7YfYnabdj/n0Z7RgKAIbLQGiTYQ 9UJRFQxnm2nH81Y9DKsh4+q81RBtG6ZG2/HNBslRX8RehbL9XkarqavwWP1ces/vKbYP7DXJrip/ s8EtBsAYQmMQzb62yhkOY+gZhMPhsPAo6HXf5AfD1DNzG7PLetXL0e1638/W46pwtmXLwNl5kTNz E6tzzzxfhw5PZ/MSe4FvZs5ib5FKL6BW1xtyBkER2BgQq7AxChXZ8VvCZC+Abq3Mbb3v2RA2Exp7 7XQOva/qOTjkMR7a6HxLYKxC4kwAHIXKNuz1AmLVeme9TiURDmfoGe5I2xT7y5vuYDg3NsmOcwfb 4eFRQ+n2+Ow28br29tXwbdxzebbRdfZ1Fj6roej4WGcag1fbAbbP82jou/ecjm7TG+pev55t6p3N S8zCXfsxa4JdDUFnjbXX4ef2du1lgKAIbBQXMczsc1wGgKK5dAwrM+ebDUVx3mC1wKU612ieYDZX cDZgxgU2vbmP2XOdzY0cLSCqFsGM9s3u7ZVdnS/br/vf/1MPU6uO23A4s9NKFiyrxTBZVbH9qJoI P2foGW44HPZCwky7mPZ2vaHNUTVyZqh1dp5dFlZnHNLrcYvZuY1V0Dt0p5qtcxdnfpajy//9fNtb x6hZdnVZ1SuxCp6aasOdBMX3h4ezTz6+xH3CMa3b6R0Solpb59nNhL7qdlVgmQ1mW8Ph7GPYEnpn n9+ZxtyHft+HLL6Z+XoupP6ebqo903B71Gi7d51+iXBcux16fvz4mF5JJyRy7+K8w95uJfHyOGzb G8psh1ln5iJGceh4SxuaKgDOBN52DuOoOfj6da8pePacxGOr53D0s2nP2WsblD22ani6NzSenTcG 7Oy2X8/5a1nenpdlef4S5qreiKOQ2FvIEucmbjk/sN3uh57PEeCERK41HFYVo9mK3zF3PqkC1Uww q8JKFa5mmk3PfF9bq58/WVmdPT+zQ8bVnMXZIf/e7jPx+dvajqh8zG9P09v2ZUGx2pIvC48xnBpy hjsKiqcOckIi1xwQR2HsGOFmFHRmg0T1mA5pKfPT7+uQwDgKVVv2kD60pc8o5M88xi3P9SHny5+v 39/CYC8k9gJhvC5+FBLhuK5i1fOphqHPObQNPw2H7fBy1QKmelOfWc08o1q5W4XVrN3NTNDoBZ9q C7/ZIfBRYIvnqrbNq7YiHAXIXqPu0erlrcPHs8G/Osfout4q6q9D4f8OS789/yoXqrQBsAqG2dZ8 7SpnIRGO72pWPa+h7ljVv2OfD04VEHtv7IdVd5bhgopDdjE51qrdrbu3zDp0dfDMTjU/2WGmd8zs 9zH6OfYC4kx1ePb72v79//Mn5I3mLq5hMRueFhThdK6mj+Ia6I5RBRQS2Xs4zPrWtVWabOFC1bz6 e3WnX5ma7cnXhowqyI72HK4aalffQ6+S2t5H1mcxXp89LyO95z57PrLvqXruZquB8fnJmqFn56yC 7mjYfes81t7inu/f1/8WwLw9p9XFrCdjGyxVE0FQPHpYvPWQeO6V4hw/IPZWE4+GVGOgmA0dWdPs ahX07CKZUcCqAmy14KI9vhdGYmjLhr6rgDt6Dmee/6qBdXaumS35su81a9I9CpC952oUGLPHUR2b /Uyzx/gt0P5v1XQVDpfl6+4sbUVRSITTucqG24cuQGmDzS1XE60Uv65w2Htj/ukCjlEfwer6XnA7 5PFuXQRRPeaq8XYMHlv3gx7Nldz6WLOAeMjj2vIz3vrYq8tme2KOzjkbqPvTHH7/CYtV/0QhEU7r KrfwO2Rxy72ExEOfHyHxvOEwDi3P7EOcDS2P9jWutoPLto/rVYXiG3u1hV72dXbb2a3k4ue9KtbM 9zkTWuLl1WMdfR/VEHT2PPeG+We3Dsz+v8y2JpppV1T9P+09hupnVd32+3Px/KdHY7svtJAIguLm 8CckHv78CInnDYi9N+RsyG4UXHpBphe6Zt7IsxARH2t8nKPQMAofvRXI2XMTP8ah2XjZ7H7WWytk 2UrvGIiq+ZIzYS+rVFYBfPZ7raYIVKFwFLi3Bt6ZoP1n2PrpbXl6evsTGjXWhvO46r2eZ+Yb3mtI nH1+BMXTh8PsjXF2UcHMYoeZeX29N+fRMO6s6r5PsU3fluHR2d6B8bn86fddBeeZx9r7mcysYN/6 PR1zf+/ePM+fPL/Vda8v737RgKB4WBiKFbV7DDjHDItC4vaAeEhLlp+GstEw4kyrmi07loy+t0PO tWUeZS+MjJ6fUZDd0tZn9LjPGY63/qy2tjc65LHM3u9P9r1+/HjxyweO7P+u/RuoVkILif3QLCSe Jhy2K5dnmiJnVZjebbMhxjgMmw1TV2/wvSHDamVxNVey+v5GLXRG56gC3uxOKu35qvP2WvJUz9do 28CqZc6o7dDMNoa9eZC9VdXV8PjoMVZD0jNTDUbzHreExNFQ+tqUvt33HPiZq68oZpUzIbEOiT9Z LS4o1m9OozfmY21Z95NKzqHVpKqi1Au9s0OTP91/ePT8bVlhu2UP7ENX+c42F+8FpEMrcL39nkf3 Wf2ssu8v+8OoOqa3kKc6pv36+W1Zfj/l/1dUF0FQTMNMnOQs3BwnKHoe63A4UynpvVH3gljvDfoY ofAnLXdGwWlre5xRINs6JDvbEuiQ4H7o8zQbbOP/qZmh9uo2vYUtvfOP+m/OhPLeHwqjeY2jsP/r 17+X//NPHkTNXYTj+OtWvpHHj4/l5fMz3drpngPi48fHlyrr1tAnJOYBcfSGOdMCZPYNfjZ49FaR VkOCo8A3E2ZHextXK7UPnavZawHTm8s4CsyjxzLTTmZ0u62XVT+Dqj1Nr1n7lud8Zq5n9bMcfW/V MHcV2nsN1mefQ+BwN1NRXENNGxIFnP+elyxYC4mHhcMvL6Bfb8s//8wPBc8Oq/aqPofO8Zqt+Gx5 A54Ju1kQ2LLYZPS9j+bJHbL/da/CNnO+3tSB3nM4qsxlt5157KP/D6P73/K8zH49+kNm9DzFimL2 R4+qIgiKX7QVRY1Yx4Fxpq3QPQfFUc/D9Y1qfR/uDRtXb4gzwWB2d5Le3LvsPntVwNEb9kyQ7M0L 7FUwtz6XowAy+5yNgu7Mz2QmQM6GrNndZ2b+sKiGY9vfCb2RmOq6dXu99br269HITtyvOTtH9bvq 4/FxeXh/Xz4e/1208vAuEIKgKCyeJCxWwdE2gMuf1cvVG+/6/twGxVH7lZlFADN9EHtVo5lq3kz1 ZjbsjELeTNjqVZBmh+Rngl88/z0veIgjMFmw6wXEmVCZ7dMcQ2J1n+tts9/jgiIIikf55WfYdFtQ 7AXHY97ntfxcqmbZ69dr9mgn08+GvZkg1AuFW1euzmzbdu/B6Z5/F2Thbnae96ja+OX/bhMA2/vI gmPvj31BEQRFdhIWY8DrVWyr815zYH9/eE3DkzcqbikkZqFtNgxWw849vSriaERofe3F16HXIJzG X56C+5P1mtzy5rL+Mn/qnP92nisVNm4vJLahbmYIuTqmvXwNeFlgjMPO8fJsWPrViBAIiuxHb87Q 6DhD/HA9IbEX/Ko5hbO/Q6qvR3MV4+8Wv1NgP/7PU3Cf2l/EMfytvRerkPj48bG8/v13edyti8Nc 7RA0XMMfhVWwqyqMo6HkXsDsVS2zIWiLEEFQZGdvGnFuUBsm2zeVNRwC1ydWE7NAV4lVwPixDYO9 ymL2+6cdhh6FxGouoj/WQFDkxCFxDYHxF7VWQ3AbIXFLVbANcPF2MWjOBM4sPMZh59HjAwRFzmwm BGbhEbgeL5+fUy1sqsBXrWLOwmR1bDUc3T4uv2dAUGRn7Im9naEvrvEPwq1Ns0dBL/6xGVc8z9y2 fRwzIXHUAsdrEARFjsycQ7htvTZY2UKS7Lpq9XL2dXXedh5jrEKqJIKgCMCOQuJMcKyOqeYSjhbD xMBpNAMERRIvn5/L+8PDt4/sn6EvbjUktuLcw6rvYVzpnFUk22PaYWqL5EBQpPmF3YbCOKdnZrsr gEND3ygMRjHcxXO1H3u9F7Nh5vZ2W0Li7BZ9/liD47Mzy4lDYhYKs7+wbVcFHPP3Tgx6McRtle3p 3Auk2RaAdnOC66OieGKzPccMPwPHCInr75VD5wCOGmSvH3vD071FL0IiCIocGPyExf0y9MU1/c7Z sjtKvH60KKU3LN1e1ltVfYrXntcgCIpXHRJn/4oWFoFDf+dUQ8C9sLYlwFW7t2SBcr1eNREERZpf 1jHoPX58/Pnl2H4uLALHVi0qqaa+xOt74bAaas5un7W/scIZBEV/0RcBMZoJjMLifhj6Yu+/e6r9 mGN4G1UXs3CYzbOOW/ZlHRzaz4VEEBSFxA0hsD1WWAR++rtntAK5Paa3Ijrbs7kdQo6dG6rzjELr qf5I88caHJ/2OEcMiIdYbycUAof+/pk1E+riwpYYHqsG3FVV07xEuG4qij/8Jb2lgjgKjNl5BEhg 1qFb41UhLxtKboNj3G0lzlcUEkFQvNuQeKyAOBMYhcXLMfTFnv9QHc1NnJ2T2KsKxsUw1bZ98fY/ /f146GvPaxAExV2ExFMTFoFeSFyDWxXWqrmEVXjsbffXC5dbAikgKN68cw6lxOqisAhCYhbYsp6F vVXIMUhmcw+r22S31woHBEUuHE4tejk/Q19cg7iKOQt/WYCM12XzG7N5iO11WSAVEuG2WPV8ZYFx DYsmicN9qf5IrIaXey1sRpXEKmxmK57by48VEn/6R1r8Y+0Y5wJBkasLjMB9ePn83HT8bPjr9VbM 9n+uVlX/OVY1EQRFAM4bEmdb3lTDx/HrLARWl1dzG2PF0h+wcJvMUYTEsYe+4FCjkNguYpkNlG3b mziEHNvfzOzCcsyQeOyhYq9BEBQBblI75DzTB3EUKGO4zOYZVqEz29ZvWSxeAUERgLN7f3j4Njdw a4/C3lByW1GsAmJ2PSAowl0z9MUeQmKr6leYXZaFw97xvXCZBcf2o3mJICgCsBPZtnkzQXC0G0sM g71K43rdKYacT9XKxh9rICjC0fz+/Xt5f3hYXj4/hx//+ecfTxhH1WuqH1cbz+r1WqyCZdVo+1Qh ERAUYfdv0GsrkvhG2fsIpw6JM1vqrV9n/yfby6tFLTEk9o4B7sevh/d3JRFYtvWra99QZ+dp2SGC UUisGl9n8xCr/6ujHVRmVk9X8xxPWU085PWx9TZeg7CdhtuQvCHOHv/r1y9vPBwlJGahbPb/Zbbb ShUSZ+YwZoHSkDPcJ0PP8D9WcLK3P1x6W+r1VjdXw89ZxTDOQxQSAUEREqdeFWnlJZm1mri1X2EV 6GJwjAGxrRhW9xmDp5AIgiIAFwyJvV6J1eXVvs5tIGzPG1c8x9tUYfMcf6SdYwqHP9ZgO3MU4X+0 uuESITGGtWMFtGyYuVVVEePtTMmA+6aiCLATvZDYtqnptcvpDSf3eiZmAdKQMyAownL4/MStVch7 Hfp6f3joNpK+x+fj0CAZh5NHgTPutFINRUfnConnbllj+Bm2MfQMnD0g3fNwZjYvcTYkRnGhSjbf sNqOr1r4AtBSUYSOx48Pc7ROFJbuscKYzUvMZDuhZCEuC3xVG522GpmthG4v838eEBThfz4eH5en ZAj5VG+Wxxz6mt2TOn7cW2C852HpKgBWvRKrRShVX8VRlTH2TzznvMRL7ZRi+BkERdjk9+D6vVVY 1tC3ZU/q3s4cewqNt6r63g7ZEai6vNeEuzevcb3M4hVAUIQJWTDcU1iMb/ozH2f2+t1TYIyV0FsM icvSb7Q9anGTnSdrpt1eFoeZ4+0BWhazcNeyYedzBMJ16Oucw26Xqhr9ZIXvl3B7pdWu0VB/r9JX Nb/uzVeM2/O1YbEKqE9PT6qJQEpFETaExOx6bV/6YsVsy8e9D5dvCeiH3raaY1iF6tFuLW2YXI+/ RLX8UvMT4x9rgKAIZw2TLGmIef377+Xx4+Pgj9foGH9E9HZQmd1+r/e1/8+AoAgC4EWf13sc1lwX G43CX/V5FgxjKGyriFVj7V6rHfMSAUERCuvQ1+8DQuIxQqWhr9sOiWtYi0EwDh1Xn2chLg4/x2ba 8b5Gw96XCvCXHnb2GoR5FrNw9w4NfY8fHxeZn2hO5HWpguCW243Oma14ruZ3rpepoAMzVBThhgKv N//LW4ece8O61crk2QBZLUrJPs/u1/8TQFCEjmMNff369etHtz/W0Ff7xj8KASqSpw2JMaxloTGr MmY9E6tFKnFOYrVyPIbEbFU0QI+hZzhCSHt/eLhYlUZ1aF8hMQtnh+jNUcwWrcTPq/u/9P+XvcxP jH+s7ekxwZ6oKMIVh7XqfoXHy4fEGOiq0Bcrjr0h5LaKGKuDvf6ThpwBQRGEU2Fx52Ig3Fpx7O28 koXTtupo5xVAUIQJex36OmZIFBbPZ3aLvq3XVZXIbMVzNR9yb/MR9zrEq00OCIpwMy7R85FcNeRc rXqugls1RF014652ZFmvi8HR/wFAUASExQuExCz8HbK6uDq+Gm5ubxPnKrZVRkPOwE/8enh//8fT cH3+fn292sf++fJysfs+9tDXMc93jmG5NdwIjvt6jf3+/bu8rl2csobCXkPtPf+BcIrX3x6G14/9 O20Pv98v+XuafdEe54pd2z6t+rdd3qV2k/E6678mqh1U2mO29Exclv1VEk/5h9Clfhee8nfaLX5P XCdDzyAssoM/omb2aa6GtLOWOgDHoKJ4A/75Z/9vDL9+vflB7SwsctnXWHxNxOpib8i5Conr9fc4 L/HcvwfP8TvtFr8nBEXYrb3vvmCHCKq5h1lvxHj5nv8I8P8arpehZ4AdBMRYQcxCYW9f6GWxwhkQ FAFuTtyarw2BsZoYt/DLWuQACIqwwbUMfdkhgjjsnK1yznZiMe8UOAVzFAF2FA7j4pT2sjjUvB6z 5yHnY/yRVvUV3EsVtdf3sOpHuPdeuId8TwiKAJxAtYVfNezcfn4zx7raAAAgAElEQVRP8xL31ju2 93hmQuwee+H+9Hvi9hh6BthJWKxWN7dv0r0m3QDHpqJ4Aw7pfXVof65r7LN1ba05tMm5vPeHh+W5 GXrr/b8/Rq+7dog526Kv2t957/MST/H/+Fy/u0b307v+2Pd16e9Jf0VBkSuuQPzkTekS9w3XIAtm p3gdtffR64+YDUFbvHK6313XtD3q7O/ia9vyFUGRHzpkMvEpJk+b1MytWbc3jCuP26+fn59PGlCz 3Vbaz4XE0/3e2vsik63f07V+P+yHOYrctGsdwtUm53IhsVpUEsPcsWXhsPc4AM5BRZHd+8lfxE9P T8typL+oj1k9nfmejvnYj/W97r068ZOf0VpJbFV7Kx87LGb3E+9j/fonq5zP/fOr/g8biQBBEY7u UnNsTlXFOdb3U/XYO9X3use5Tj/9GbUhMdtj+RwVxfa+q/2ejzHkfMmfn4ooCIpwUsdYYbrFOVb7 HXPF40+en3Ot1Nzzz6iqIMbrjx22qu37Wseel3jOn59Vs8vNvVYQFAHuQlVNPKeqZ2IVXuGQP0bg EBazAEJiJ7S1l53qzTY2244h0Spn4FJUFAEhMYS2mcuOqW2BE4OpkMhPWDiEoMjN2PuK2uzxPT09 LZ9X+v1c88/ikMe95zfMtprYVhcPDYnX+FoSavb1mvWzQFBkl/a4orb3mPawSviY5//p93otP6Oq mjg6/6mfg7jK+fUH1cRrei2ZP7ef35l+FkTmKAJ3pQ2Js2+y1RzCU77pG3IG9kBFkd3ZU4uX6vo9 tJI59jl75ztmW41z/Yyy+3r5/PwWAGNQ61VUTt1Tcz3/sULiXl5L5/q/da2q5+An//fP8TNHUISr dK1No/2czvNzyhpot42uZwLjqZ6Lt7e3H+28cu0/o5fXx+Xp9/+ei+f/heffT8vz6/29BvyOQlCE EzvXNnQvr/mezG+LuT6H/oxO8XNah5zf3t6+LRyZDZKncozt+W7htdQGxFOKr9nXl/eb/r8PgiJ0 A8LrlzefUwa4tRry7xue535vqj2V4yKSLz/TM1QZ1/O+3vm8xKffT8vb89uXquK/r92nk9xPFhz9 gQeCIndi/av832Gr04bDc1RBOG5IjL0LR8dn+y8f054Xr5yrwtWGxK+vr+PfT/1a9loZ/cy1zhEU 4eoDwcXuu5lXxfWFxi+h4YyNt/caEi89T+6/P8KeznI/57iva/79qXWOoAhX7xSri2ffaNqgeMw3 nGwl4uj7POQ29yRrcF0Fxl6Y9Fo6VTD87+tzVPn2OiJw7FXI5+rywG3RRxGO9CazDput/9hfOIxf z1QRZ67j+IHtlFM6vD5hnooiHOFNJ4bFU4acLU2it96GEFyKxS+c57X038fjvqbOFUiP+YfNMf4v g6AIO3ij43pC3+wxsdeiN90T/YyaOb5fVz+f/j735JiLRbTaQVCEHby5fZ0M/yc2enJ29CY2U6Gp jrlUI26vrbeT//HVhtJzhsZj/9+3EplTMUcRjvBG035kp6GjUwWsrmsD4mzY5DgBMfv8XPcJ/EdF EY78BqOv4s+D20kC/WChSlst7PVQNOx8nj++7mHo+Rj/l/zxgqAIG1yijUMcuhIS+47ddmX2Zz7a lSXbnaV9I7+3N+RLtUS5xz+0Dn1NaFuDoAhX8hd2O/wsKO7zZ17trDKad3jPVcRLvJbi60cTbLgs cxThCG9sp26Pw2nDUBsEe1VEi1nO8wdX/PzU9+M1CzUVRW73TWf5HtraIeLsuuwNKrbsaN9gsnYe KoqX8/v3726Ym92mr52PmA1D35veitr3h9dvr6f4Oqlef/E1085FbBvYn3KvZ69XEBS5U29L9gaz XpZfF9+s2suXECTjm6Ph5538gXBAxS9b3fz8/JwGxFMExl6rlD20Pek9vufX7PXUhsPvr7+nIrTF 19J/1z0d/XfDrdEvEUERZt8EjvxGnjZgTqqHMUCeen9a8p/9bFPtquXNOXdi6Z17D0Pcp3wtVQHx 1H9k3Vpl2Cp8BEXYibiqOQ47qyLu4GdULFhpA2K2w0p7nTfe872eZv4AAwRF+KLX8mHURuKUrVeq uYpf+721b3RPF3mOrvnne6yw2AuI2bGjeYjH/n81OuexnqO9vJaqx1H1IP0+/3d8rkv+bjjVua75 e0JQhLO8ycc3/Is+tkHl8PsE/fM/R7fys/6JOKTcqzJmgfJWKorV97uH76+3ECxet+fv6af/h/f4 +86qfgRFdquatL+XSdqjHViq1dTneI4qe5/gvvX7eX94mHqje3t7+xIYe0PR8fNbWOV8ja+leN2X hWJLPZ9xDwtTDllw1LvNHn5O9o5mpY8ibP2LuwiC7dxFc6yObw2JMwFuDYdxHmI8pg2Jbbjk9K+h GA5HlfqqwwAgKMKu3uCytjixsugN7PghcWubmjX4ZVv0jYIjp1dVFf/rnfj2LUi2c4H9QQbnYegZ DgyJo6FojhcS2yA3O4dqdNzsHs+cPiTGsBh3Ouq3o/J8gqDI0V3r6rZLP+7e7ix7f75vaUXjMbbS mxmKvsXnbo/fUwyIsXKYDTXHyr6fEQiKHOuX8pWuattFA+JOKKy2B9zD477Wn3m1eGXL95OFyrhF X9zfubffs9f/z72+vP/3+ceyvLw+fpmykc1LjK+zvb3GvGYRFIF/f4HHlh1JVfHUfRTvwcvnZ7l7 yk8qinHeYravM+cPjq8f7Q//5evXS33d34ut6+CUfj28v//jaeBWvT+8lj3ZevOkqubavfmJ8dzZ MFk1x/Hp99Py+LH/dhR/v77+CW+HNvtdh9Oenp7KFhwzbXCyABhD5Sj8VbeJITKea/388ePDiwwQ FOEWg2MvCFYBb2aLsV5PuPZ27fDbtdhLUBxt0zcKhjEcxuu+/DyLoenXv//2ggJunqFn7srjx8uy tOHk+TENjFVw3Nq/rT3u230zFRKzqt8hQ8TZvMSZ+Ynx/oVEQFCEO7FW9V4/lk3zojhPSDwkFMaq YjZkXFUW47BzFh4BBEWAgWO37nj5/OyGuxm91c1t6Iv9EmO1MlYd2+tVE4G7+l1vjiIw69h70K5z FNtKYi8YzqyCrtrhtLfLgmNWNYzXC4nAvVFRBDYHu1PqhcSZBSzVsHNvOLmav9gSEoF7pKIIXNRa Tax2Stkim59YnbPXTierLgqKgKAIcIGQeIjRXMN4bC+EZpXE9jZCInCv/s9TAFwyJB66ojgbbo7n igFy1GMxqyYKicA9U1EELhoUZ2xtsD0Kn9XClxgWhUTg3lnMApxd2wonC3Yx/FWVwGoIuTdPcSZM 6p0IICgCF3CMptozeg2zs6/j8LVqIoA5isAFQuLb29uPK3ZV38NKrDRmIXI9RkgEEBSBCzh0a7xs eDqrDLbnj4tY2qHpbDeWZVmWx48PPyQAQRE4p7WamFX2ZsJhdps24FU7smTniJdv2SYQQFAEOHJI 7M0LzMJbFQ57QXK2t2K1Ulo1EUBQBC4QEkcBbkulcRQe4+rntupYBUvzEgG+s+oZOKneXsxbblfJ 5irGfZ3jPs6RkAiQU1EETuYnW/RlvRDb4emsSjgbIs1HBBAUgR2ExGp7vZFe+5ussXYVDkfVRPMS AQRF4AIhsQp5h4TC9vJq55Y45BzvI15vyBlAUAQuEBKrCuIhrXGqfolZ65tsEUvWM1ElEUBQBC6k CoTZPMNqLmH2ea8vYm/eYnsOlUQAQRE4s5kt+mbnFsZqYLbjSjss3busCo8A9P16eH//x9MAHCsk RqM2NzNtcGLlcdRcuxcKVRMB5qkoAkcJidWw7ygEbg2J1e3W63vDzkIiwDYabgNHkQ33bpFt6dee r7daelRpFBIBDqOiCPxIO+Q80wQ7u743/BznJma9FLPbx+sBEBSBC4XE1miu4Ja5he2QctZIO6sg xkUxqokAhzH0DPwoJFa7oGRf9wJjHHaeDZPtfWTVQyER4HBWPQMHefn8TAPgzCrmrbKwWIXM9ngh EeBnDD0Dm70/PGzaw3nr3MXezivx2Hh8tYUfANupKAKbQ2IW8LKVxzOVv3h8LxSOLm/vwxZ9AIIi cOGQOGum8XZrJjjG41aGnAGOw2IW4Md6lb020PUCY1VtnAma7bmFRIDjMUcRmPLy+flt3mDscdjb 4zkLhHFeYdXeprcKuroMgJ9TUQSGZoectwa1dth4NPQ8+nxZzEsEODZzFIGjhMRDZIteesf2gqmQ CHB8hp6BqUB3rOOzljdZZTGrNLbb+LVD3UIiwGmoKAKlqql2Fv4OnR8Yh5Gz1c69forLopoIcCoq ikDqp61wqsuqxTDx+mxxTBscVRMBTk9FEfhmrSRWLWq2VBCzc7Rmr8uu1woH4LSsegbSkJiFuGxO YRXq2stjWBxt/9drhbN+rZIIICgCZzZqaj17eRYWq5AYA+NoTiIA52HoGfhjnZdYDS1vXbSyZX/n KkRmYVE1EUBQBHYUEtugl4W3QwNl73xZqDQvEUBQBHYWEg/ZJq8aQu7twpJdLiQCCIrAhYNiDIRV ODykYhgDYDzXKFQKiQDnp48iCIllv8J1B5Re0JuRBc3eiube9QCcj4oi3HlInJH1T5zdn7lauLIl dFq8AnAZKoogJP4JdVnQa8Nc1guxus1I3GUl+1xIBBAUgQuoWtDMDvuOmmX3rsvmJGbVSiERQFAE zuz94aG7O8po67x4TKwIxjmPVTDNhrHNSQQQFIELhsRek+vZxSu9IeYq9MVhZVv0AeybxSxwZyEx C27HquKNdlupgmMcehYSAfbBXs9wx045zFsNTbfBMH6uqTbAvhh6hjvx8vmZXj67Sjm7XfyXtcKZ GeY2PxFAUAQupF280gt+WXCsLm8Xo1SNuWNAzMJge15DzgD7Yo4i3EFIPIbeHMNZ1XxFQ84A+6Si CHem11g7u3wUBmeGj2MrnPhRSATYJxVFuGFbqokzW/Jl4bLqx5g10c4uXxZDzgCCInCRkLglAG7Z vzkGxjYEzny9fq6aCLBfhp7hhkPiGshmzezfHFc0V7cZhUYhEWD/VBThhkPiFofs71xVFttgGI/R VBvgeqgowo2K1bvRMbHFTdUmJzsu26s5qzbGqiIA+6aiCDfkkGpitigla4PTC5Ht7bMAGi8z5Awg KAI7C4lbVzbH22Tb7rVfVwFTSAS4Toae4cZCYtansBcCZ4aCs+PaoeYqgAqJAIIisAPV/slZcKvm G8ZQWC1wyfZ2jqE03g8A18fQM1y5WE2cWbU8E9x6cxfjkHIbGKvKo1XOANfnL08B3EZInAmAswFx NIxcrV6uwqQhZ4DrZOgZbiQkzsxJnJENXccWONVx8XMhEUBQBHagCng9VVVw/Tizijle3/4TEgGu mzmKcIWO0QqnmmfYBs/evMNeL8X1OkER4LqpKMKVefn8LIPfTJjLFrTEwBhDYlutjJXLbIhaSAQQ FIEze394KKuE2ZDzzNBxNcewF0JjG5wYJIVEgNtg6BmuLCiOwmAWDHuXjdrgVIFzvTweow0OgKAI XDAkzhgFyapR9qq3LV97TLxONRHgdhh6hhsMiTHs9VrnVHMW4+2znVbi+YREgNuioghXFhKr1cyj Vc6Z3pzFqgVOdR+GnAFuj4oiXJlj7JvcVgdH12WVxnhbIRFAUATOLBtyrkJeG+LiquRe4+1qb+b1 87hwpa1C/nQXGAD2zdAzXFFI7AW90erm3rFZaBw14LZFH4CgCFw4JM7MSey1uOndbnTsKHQKiQC3 7S9PAVxfSGxD4WxAbANlDJcxdM5UHIVEgNtnjiLs2Gzoi8fPLHipqpTrx6wdzuy5AbgNhp5hR+I+ zluHiEeydjjr/Yy292tDo1XOAIIicEajxStbh4ezkJkNN1ehMbJ4BeD+GHrmRkPX602FxBjgskpf e1wVGp+entKA2V4eQ2h7uZAIcF9UFLnJkPj2/La8vrzfVFCMoXBmGLrX7iYLi+3tsubagiLAfVFR 5OZC4rIsy9Pvpyt6zA/DoNdWBtd/WcPrqrqYVRR7QTOrLgqJAIIiXH1IfHu+nt1C4uKVLbJh5FgV HAXJ9nbZji7mJQLcN0PP3FxQ/BN0dj78vIbE2cbYh1xfBcJqHmN2GyER4H6pKHITXl4f/4TD9d/e h59nW91s3U95Zvi57ZOYDUe3Q9wA3C87s3D13h9el+WhWaX7+2n3w8/rvMRe38ItzbNjMNzS8mYN l1mVUTURQFCE6w6Jy3/zEtcq4p+w+PKyu8fca6rdU7Wtmb1+pr2OptoAtAw9cxPiMPNeh57fHx42 t7XpBcPesdl2fO2K6eo+hUQABEWuXly8sgbDa5ifWAW8KhRmwTDOOcz6HmYVxHjOdj6ikAiAoMjV e3l9LOchtiFxTzu0xH6JMdj1gmPbqiZrgZNtz9feT6+COHP/ANwn7XG4Ou28xF7lcL3+8eNlB4/5 4Vt1b7b9zZbjYgiNAbB33LIsqokAfKGiyNWFxLhwJVYW1/Y42XWXColrKBstRsnM9EqMbW56cxyr YW0hEQBBkZsRA+OXUPT76aq28dtSFay29WvPk4XEeO72NtrgACAoctWqfZzbJtvx+kuHxd4+zoeE yRggR4GwOt68RABmmKPI1YTENghW1cR1XmI7f/FScxSzkDg77zC7TXVZ75yjNjuqiQD0qCiye+v2 fG0wXIeW20piDJFtyLxESMyqdr29lrOve+EvW/GcHRfnRa63WxY7rwDQp6LI7mWrnGN1sddD8e35 bXl9eT9rSMz0ho6zCmF1+8rW2wiJAIyoKHIVIXENhWlA6qx+7t3uVNqKXQxy1arkanu9GCSrldOj 8Ll1v2gAEBTZtbapdgyB7dBzdv16TByaPn2wfRi2qcmC22jOYhwyzkJhFlKroWnVRABmGHpml9pK YrZAJQ1LzXFrUFydY0HLOuQ8s1Cl1wYn+7oKfKPLsrY4+iUCIChyE0FxNHwcF7Jkly/LcvI5ioe0 wTl05fPMVn3VULaQCMAWhp7ZnXWV81ohzFYyx+tjQGwvf/r99GXl9CnM9iOcaagdj585d6+KuOXx AUBLRZFdia1ssu36tixOaYejT1VVbKuJM02x22NntufLVkP3hqir26gmArCViiK7DIlZZTDOQaxW OWdhcVmWk1QV23mJ7crkmYreqKLYm7s4WiwTCYkACIrcjKzlTTuU3H6M18eg2QbOY4bFtpIY29Zk oa8Kj72m2dXx1e2zxyEkAiAoctXaLfpi+OtVCntzF7PQecywOLsbShYWexXEdl5iDIC9UDlqoQMA W5mjyG5CYtsCZ7YlzlSg66ycPrRtzrpF36GNrHu3zeYZxjCZhdW4PaB9nAEQFLlqL6+PaYDrBcVs b+feOarwuF63NSzGVjjVfsy9OYYzAbG6LAbEGCLt4wyAoMhNaKuJM+HuSzBKQuJsBTLuFT27IrrX L7HX33AULHshsOqXGCuI7e2FRAAERa7eWlE8ZF/mUbUxhsoZo+ri1iHn2XY5owUtVSjM7kNQBOBY /vIUcGmzW/PFIFi1zRlVGquh67fnt+VlqauLazWxt8VeFvBmwmQ8bmsD7fYYIRGAY1FR5KKqFciz ezvH0FgdU1Utq/2hY2UxNtWeGf7dutAla6g9uizeXkgE4Ji0x+GiXl/e036IbYDrNdaOW/iNxHO2 99UGxpfXxz8NwKt5iWtY+0klMX4eh5FjNbENi/FyIRGAY1NRZBdiZbG3uKU3xNzepqoW9o7NrluW 35u+l9mFLKPWNtk5sv6Ky6KpNgCCIncWFqtwNxXWDmiZE0Pod+PAWLW4qdrbjFZIZ7fPjhcUATgF Q8/sxuvL+7eFJNW+zr2QF4PezG1jSFyHp78OfT+nYa8Kb/Hr7Jhs271q95Y43LyGTCERgFNRUWSX etvsbakUZsPUP9nt5d/b1i+Z0Y4rMTRWFcXeiucv4dq8RABOSEWRXcoWucTwlwXB9rJ2kUobMLdU G+N9/Xvb5yVWF2PQa8PeWgmMi1BiC5z22HiuLHwKiQCcmooiuzeauzizs8vsdn4zgfHrsb+/BMOZ bfu2tNWpFq8si3mJAJyeiiK7l1UXY9UwXpdt95eFvu/Brw6I67FfL3se7qaSnjcZhq4+ZrcVEgE4 BxVFrsa6L3QaysLcw5nWOG0QjLu2VE25+5XHelV01Th7FCjt4wzAJakocjUeP17KuYszVcJqbuPs 9oG9faX/rWL+SgNi+3m2p3NvsUqc5ygkAiAowiAwZuEuW9BShcZRKBwdF+/nv9t9X+jSVhNjJbFt jdN+zOY6bt0SEAB+ytAzV6saiu7t1BKvHy1yaY/f0l7n7fltWZ7+G4ruLVBpP4/D0+3xqokAnJuK IlerGorOW9rkIbIX+OKwdG84Oxv6fnr6WgnMhpjX66uh6DUwCokACIpwYGCsAlxvQUsW8mZ2ccnC Y1t1/LYq+vlXOjdxDYJVgFxvY4UzAIIi/EBVWWzDYD2vsJYFx16wLM/59pw20m6D4Roc14+jXVkA QFCESXEoOhtmjkPRW3oqrsd/76W4pOdow+nT76dleXtOw1+2Q8ufAGzIGYALspiFm5QtdKmGnmd3 bDnGXtH/+XehS69yKCQCcGkqitykat5ibJsTG23HYBmPj029s/2ls/uK5197LlYtb4REAPbgL08B t+r15X1Zlu/Vxbfnty/XrSEwC3XVji1xsUxWaaz2n/7v+F/L0+//Cvq91dEAcAkqity82KB7DYmZ uGNLtoPLGvRmhqGzOY1fw+WvJTboVk0EQFCEC4TFNiS+fH4ujx8v5VzG3r7SMfRlQTMe2w5LfwuP T/+2ydEKBwBBES4UFltr5e715X15/Hj5Eya/zyes5xtmw86jXozt8V/u7+35z1A4AAiKcGEvn59f Pr69PX0LctWWf+3nWfgb7TedVTLfnt+ERQAERdiT17//Xl4+P5fXv//+VlmsAt/WforVdoBZ2x5h EQBBEc5krRiOwuKfsPb273zGtkoYVbu2VAtYstDZC5ovr4/Ly+ujHx4AF6PhNncfIKtVxn/C5dvz 9HZ/2eKVqk1Oe9lo9XTWFxIABEU4cSCcOXYdCq628IutdEbBsAqa7e3jZecOi+v3LKQC3C8Nt7np cLgsX4eUYwhcv24vXz+2161h6f33Uq5wrha9zITEGDbjOd+e35b3f3f9O1pwy+ZBHmd7QgBuhTmK 3KzXv//+Fv6yY7LwWF33+PHyrWF3DI29Iehqi7/2dtkx7flm5y2+vD4u7w+vX/6tl1XnEBIBaBl6 5i70wuDsbaK2Ijfa4q8NYodUG2OI7G0PWAW+0bB3dv41HAMgKMJNBcMsCLbhLwuC2VB07z6envJG 3LOBcGYYu2em4XcMldk+1dW5l6W/5SEAt83QMzdpHXau2uK0gTALkcOV0P87Zt3RJdsTujf8XFX+ RqGtCpTVearm4LFRePk8CokAgiLcupfPz29BsA2LVXUxC5ftdX8qly/vw2HdNsSN5jVGoz6Oo/CY VRuzeZLtdUIiAIIiNxcI4+ejYeR20UvPaBg7zuWrmm9nAXC0U0tWhZzZJWZ0WTVcLSQCIChy04Fx DYCxitgGv7WaGENmFgyr+4ltdHqhLlvpnG0V2Gu709PbY7oXNAEgYzELNxUMe5fHBS5xnuLMquhR dfLl87PcyWVm1fHouC2qeZDVCu31MqucARAUufmwOLM9X5yrWK2I7q2Qjl+3PQpn5y322trMhsJD W++0hEQAWoaeuYmA2Ia+eF228rkNeFmYjJe1AbK6v94q65mQN1qBnA1bt4F0do5idS4hEQBBkZsL iXFoOYa7bEg5k61ozs5ZDV1nAbO3A0umt5Clat6d3b7Xk7GaCwkAkaFnrtb7w8Py9vaWDhtnATGb jzj6enS+7Jj3h9c0gPUaXG9pgr11eLpa5dx+bpUzAIIiNxkSo97uKjOLUeK8xVbvvG2YrMJiDGtt OKyOi8f2QubWwLgs5iUCIChyQ6rVy6Pb9BasjPZ+nqkq5oF2e3VxDXWjY9rjepePziUoAiAocrdB sgqNva/X28+EwZFRWFw/74W8KiS25xoFzuw4IREAQZGbC4KzbWxG1cdRC52q+nhIiOwFxjb49Raf xMpgrBbOtN1ZjxESARAUudmQOBsk26CYBchRc+1sVfOpwmLP7HB0PL66zgIWAARF7iokHnK7Q67/ yZB0b6HLbGgcBcMsVLaXCYkACIrcTUic3UllWZbp8xxjfuJPA+PMYpZeyMxub8gZgFkabnMVtobE 9mPvHNXOLevx2fWH7L6Sefx4GTbezuYbxuN6xwqJAAiK3Kw1qMV/1bFrwGt3UImBsgqSo4Ut679j VhmrsNjuyBJDYrysWsCSHQsAWxh65qpDZFUlXANjdewhge/SQ9HLshy8iMW8RAAOoaLIroNg+zHq 7cpS7f9cbdm3ft77+pQhcVnGQ9HrnMVq/+gsMAqJAAiK3GxIrEJdG+Rm5hCOFrbEgLled+pwOBsW 13A42oVlDZXtZUIiAIIiN2UNaVnoa+cK9sJdb2g6G4ZuQ2dvLuQ5wmIV7rKwOFrwAgCHMkeR3du6 e0o1vDxbHTy0mfZJvvfXx+711dZ/begEgEOpKLLrgNj7PAa5KtxVK6B797mHkLgs/w4bjxawVNv0 CYkACIrcrC0Ns+OWfL1j4jnaYeZLzEscmR2KboedzUsEQFDkpvTmBGbhrZrDOGrOHauT2XzIvYXF NfxVi1mW5fCt/wCgYo4iuwqJo8Un1TzE6vibfK6KeYv2cQbg2FQU2YWs92EcTu4FwZ+uUB7t+rKr 5+rl/Vt1UUgEQFDkZmWLSLLKYRso40KW+HkMnKMQuMf5iT2x56KQCMCx/eUpYA8BMS5CmRk+nh1i jsFy67zGvYfF99/+HwFwGuYoctUhc2b/5hhAbyEgAsA5GHrmokFvtP1eb97gTEiMx2W7uVzDvEQA EBS5K1mVL9tNZXZ4udrub0vgBAAERS6oanBd7Yoyqjpmt0ieDLUAAAPuSURBVOldVl0HAHxljiJn D4ntwpUt+zL3Ko/xcgDg51QUOau4AnnLjivrdaO2OW2wjP0Xr6VXIgDsgYoiZxeritn1bQjMGm9X t589JwAgKLLDgDgT3npzCLPbzc45NDcRAOYZeuZieiuas237quuzPolWOAOAoMgVG7Wzif0Ps3mJ 8XbV3EfzEgFgO0PPnCUMHrIdX7UyOp53docWAGAbFUVOKuuTuH6etbvJwuWWnVTiMLRKIgAIiuxQ r8fh7I4rM+c61n0AAIIiZ/D+8PAl4MUehjMLVaoG27Fhd9Z3USURAARFdhwSY/iLYS8Gw8rMPs2G mwHg+P7yFHDskPj29vYlvK0BLoa7UVUwHh+DYa9xtyFnAPg5q545qpkVxzOhcXTu7HirnQHguAw9 c1RZ4+tsPmJvKLoXErPt/GL4BAAERXYqVvtGW/HFAJmFvmwuYnu8SiIAHJ+hZ44WDqvg1mum3bts yzC2oAgAx6eiyFG0lcO2vU22UCULhL2wN2p9IyQCwGmoKPIjM4tJqmB4SMizeAUAzkdFkR+ZqQJm x1Tb+mWft19ntwMATkNFkYNl4W2mtc3s9bF62AumAMDxqShysgAZq4rZ5dn17WUAgKDIFQbBajeU 0W4pMTT2hpVH1wMAp2PomYOC4k8WocxeZ7EKAFyWiiKbA1/2MV7fuy7u1jJzu+w2AICgyI7EnVbi 3MJ4XbzdTM/Edui6rSqqLgLAeRl65qhmg2B7bBs4s5XPQiIACIpcURjs7bE8uh4AuA6GntmsWr0c rx+FzUOuAwAERXYiW2RS9UHsXda7bTym3SsaABAU2als4UpvUUoV7mJonGnAbdgaAC7LHEVKx5hj ODMkHRe4CIgAsA8qipSqhSq9/ohVAKx2XYnXCYkAICiyY9lQcBvqZrbmy76O4dOWfAAgKHJlskUo 1eczi12q8/XuFwAQFNmhbF5htiNLPH608llABABBkRsLi+1lWbWwt1VfVV003AwA+2fVM1MhMWuD M9pub7Q4xfZ8ALBvKoqkofDp6WlTSMyOi42zR9VIAGBf/vIUkHn8+FhemmCYBcLZPZ+r2wEA+6ai SGlUNcx6JLZVxKp3YtY2BwDYH3MUGRq1tDHXEABuk4oiQ725hNluLDOXAQCCIjcWGHt6i1xUGwFA UOTOw2J7jCoiAFw3cxQ52CgIqiICwHVTUeRggiAACIqwOSwKkQAgKILFKgAgKMI4MAIAt8MWfgiL AEBKRREAAEERAABBEQAAQREAAEERAABBEQAAQREAAEERAABBEQAAQREAAEERAABBEQAAQREAAARF AAAERQAABEUAAARFAAAERQAALuX/AZVLi9k84CzFAAAAAElFTkSuQmCC "
       id="image9829"
       x="122.47623"
       y="7.5175548" />
    <g
       aria-label="640x420p"
       id="text1061"
       style="font-size:40px;line-height:1.25;fill:#ffffff;fill-opacity:0.996215;stroke:#000000;stroke-opacity:1"
       transform="translate(-1.5164929,-9.267405)">
      <text
         xml:space="preserve"
         style="font-size:42.6667px;line-height:1.25;font-family:sans-serif"
         x="155.18657"
         y="58.299332"
         id="text4647"><tspan
           sodipodi:role="line"
           id="tspan4645"
           x="155.18657"
           y="58.299332"
           style="font-style:normal;font-variant:normal;font-weight:normal;font-stretch:normal;font-family:Impact;-inkscape-font-specification:Impact">640x480p</tspan></text>
    </g>
    <g
       aria-label="Einzig gottgewollte 
Auflösung"
       id="text1262"
       style="font-size:24px;line-height:1.25;text-align:center;text-anchor:middle;fill:#ffffff;fill-opacity:1;stroke:#000000;stroke-width:0.7;stroke-dasharray:none"
       transform="translate(-1.8106463,3.5202748)">
      <path
         d="m 149.34871,101.97515 h 8.22656 v 3.79688 h -3.29297 v 3.59765 h 3.08203 v 3.60938 h -3.08203 v 4.17187 h 3.6211 v 3.79688 h -8.55469 z"
         style="font-family:Impact;-inkscape-font-specification:Impact;fill:#ffffff;fill-opacity:1;stroke-width:0.7;stroke-dasharray:none"
         id="path1266" />
      <path
         d="m 164.05574,101.97515 v 2.47266 h -4.875 v -2.47266 z m 0,3.42188 v 15.55078 h -4.875 v -15.55078 z"
         style="font-family:Impact;-inkscape-font-specification:Impact;fill:#ffffff;fill-opacity:1;stroke-width:0.7;stroke-dasharray:none"
         id="path1268" />
      <path
         d="m 170.57137,105.39703 -0.082,1.42968 q 0.51563,-0.85547 1.25391,-1.27734 0.75,-0.43359 1.72266,-0.43359 1.21875,0 1.99218,0.57421 0.77344,0.57422 0.9961,1.45313 0.22265,0.86719 0.22265,2.90625 v 10.89844 h -4.73437 v -10.76953 q 0,-1.60547 -0.10547,-1.95704 -0.10547,-0.35156 -0.58594,-0.35156 -0.5039,0 -0.63281,0.41016 -0.12891,0.39844 -0.12891,2.15625 v 10.51172 H 165.755 v -15.55078 z"
         style="font-family:Impact;-inkscape-font-specification:Impact;fill:#ffffff;fill-opacity:1;stroke-width:0.7;stroke-dasharray:none"
         id="path1270" />
      <path
         d="m 185.67683,105.39703 v 3.44531 l -3.49218,8.98828 h 3.49218 v 3.11719 h -8.07421 v -3.25782 l 3.57421,-9.17578 h -3.21093 v -3.11718 z"
         style="font-family:Impact;-inkscape-font-specification:Impact;fill:#ffffff;fill-opacity:1;stroke-width:0.7;stroke-dasharray:none"
         id="path1272" />
      <path
         d="m 191.60652,101.97515 v 2.47266 h -4.875 v -2.47266 z m 0,3.42188 v 15.55078 h -4.875 v -15.55078 z"
         style="font-family:Impact;-inkscape-font-specification:Impact;fill:#ffffff;fill-opacity:1;stroke-width:0.7;stroke-dasharray:none"
         id="path1274" />
      <path
         d="m 204.06355,105.39703 v 11.97656 q 0,2.42578 -0.11718,3.14062 -0.10547,0.70313 -0.78516,1.48828 -0.67969,0.79688 -1.89844,1.20704 -1.20703,0.42187 -3.04687,0.42187 -2.26172,0 -3.63282,-0.77344 -1.37109,-0.76172 -1.41796,-3.01172 h 4.59375 q 0,1.03125 0.75,1.03125 0.53906,0 0.71484,-0.3164 0.17578,-0.31641 0.17578,-1.32422 v -1.17188 q -0.60937,0.55079 -1.28906,0.83204 -0.66797,0.28125 -1.40625,0.28125 -1.27735,0 -2.10938,-0.51563 -0.82031,-0.51562 -1.125,-1.34766 -0.30468,-0.84375 -0.30468,-2.39062 v -5.64844 q 0,-2.21484 0.79687,-3.1875 0.79688,-0.97265 2.42578,-0.97265 0.89063,0 1.61719,0.36328 0.73828,0.36328 1.3125,1.08984 l 0.33984,-1.17187 z m -4.74609,4.125 q 0,-1.06641 -0.12891,-1.35938 -0.11718,-0.29297 -0.53906,-0.29297 -0.41016,0 -0.58594,0.33985 -0.16406,0.32812 -0.16406,1.3125 v 5.22656 q 0,1.04297 0.12891,1.35937 0.1289,0.30469 0.53906,0.30469 0.46875,0 0.60937,-0.375 0.14063,-0.375 0.14063,-1.69922 z"
         style="font-family:Impact;-inkscape-font-specification:Impact;fill:#ffffff;fill-opacity:1;stroke-width:0.7;stroke-dasharray:none"
         id="path1276" />
      <path
         d="m 220.73933,105.39703 v 11.97656 q 0,2.42578 -0.11718,3.14062 -0.10547,0.70313 -0.78516,1.48828 -0.67969,0.79688 -1.89844,1.20704 -1.20703,0.42187 -3.04687,0.42187 -2.26172,0 -3.63281,-0.77344 -1.3711,-0.76172 -1.41797,-3.01172 h 4.59375 q 0,1.03125 0.75,1.03125 0.53906,0 0.71484,-0.3164 0.17578,-0.31641 0.17578,-1.32422 v -1.17188 q -0.60937,0.55079 -1.28906,0.83204 -0.66797,0.28125 -1.40625,0.28125 -1.27734,0 -2.10938,-0.51563 -0.82031,-0.51562 -1.125,-1.34766 -0.30468,-0.84375 -0.30468,-2.39062 v -5.64844 q 0,-2.21484 0.79687,-3.1875 0.79688,-0.97265 2.42578,-0.97265 0.89063,0 1.61719,0.36328 0.73828,0.36328 1.3125,1.08984 l 0.33984,-1.17187 z m -4.74609,4.125 q 0,-1.06641 -0.12891,-1.35938 -0.11718,-0.29297 -0.53906,-0.29297 -0.41015,0 -0.58594,0.33985 -0.16406,0.32812 -0.16406,1.3125 v 5.22656 q 0,1.04297 0.12891,1.35937 0.1289,0.30469 0.53906,0.30469 0.46875,0 0.60938,-0.375 0.14062,-0.375 0.14062,-1.69922 z"
         style="font-family:Impact;-inkscape-font-specification:Impact;fill:#ffffff;fill-opacity:1;stroke-width:0.7;stroke-dasharray:none"
         id="path1278" />
      <path
         d="m 233.13777,110.85796 v 3.8086 q 0,2.09765 -0.21094,3.08203 -0.21093,0.97265 -0.90234,1.82812 -0.69141,0.84375 -1.78125,1.25391 -1.07812,0.39844 -2.48437,0.39844 -1.57032,0 -2.66016,-0.33985 -1.08984,-0.35156 -1.69922,-1.04297 -0.59766,-0.70312 -0.85547,-1.6875 -0.25781,-0.99609 -0.25781,-2.97656 v -3.98437 q 0,-2.16797 0.46875,-3.38672 0.46875,-1.21875 1.6875,-1.95703 1.21875,-0.73828 3.11719,-0.73828 1.59375,0 2.73047,0.48046 1.14843,0.46875 1.76953,1.23047 0.62109,0.76172 0.84375,1.57032 0.23437,0.80859 0.23437,2.46093 z m -4.73437,-1.17187 q 0,-1.19531 -0.12891,-1.5 -0.12891,-0.31641 -0.55078,-0.31641 -0.42188,0 -0.5625,0.31641 -0.14063,0.30469 -0.14063,1.5 v 7.01953 q 0,1.10156 0.14063,1.44141 0.14062,0.32812 0.55078,0.32812 0.42188,0 0.55078,-0.30469 0.14063,-0.30468 0.14063,-1.3125 z"
         style="font-family:Impact;-inkscape-font-specification:Impact;fill:#ffffff;fill-opacity:1;stroke-width:0.7;stroke-dasharray:none"
         id="path1280" />
      <path
         d="m 239.68855,103.32281 v 2.44922 h 1.27735 v 2.46093 h -1.27735 v 8.32032 q 0,1.53515 0.15235,1.71093 0.16406,0.17578 1.32422,0.17578 v 2.50782 h -1.91016 q -1.61719,0 -2.30859,-0.12891 -0.69141,-0.14062 -1.21875,-0.62109 -0.52735,-0.49219 -0.65625,-1.11328 -0.12891,-0.63282 -0.12891,-2.95313 v -7.89844 h -1.01953 v -2.46093 h 1.01953 v -2.44922 z"
         style="font-family:Impact;-inkscape-font-specification:Impact;fill:#ffffff;fill-opacity:1;stroke-width:0.7;stroke-dasharray:none"
         id="path1282" />
      <path
         d="m 247.00105,103.32281 v 2.44922 h 1.27735 v 2.46093 h -1.27735 v 8.32032 q 0,1.53515 0.15235,1.71093 0.16406,0.17578 1.32422,0.17578 v 2.50782 h -1.91016 q -1.61719,0 -2.30859,-0.12891 -0.69141,-0.14062 -1.21875,-0.62109 -0.52735,-0.49219 -0.65625,-1.11328 -0.12891,-0.63282 -0.12891,-2.95313 v -7.89844 h -1.01953 v -2.46093 h 1.01953 v -2.44922 z"
         style="font-family:Impact;-inkscape-font-specification:Impact;fill:#ffffff;fill-opacity:1;stroke-width:0.7;stroke-dasharray:none"
         id="path1284" />
      <path
         d="m 260.07918,105.39703 v 11.97656 q 0,2.42578 -0.11719,3.14062 -0.10547,0.70313 -0.78516,1.48828 -0.67968,0.79688 -1.89843,1.20704 -1.20703,0.42187 -3.04688,0.42187 -2.26172,0 -3.63281,-0.77344 -1.37109,-0.76172 -1.41797,-3.01172 h 4.59375 q 0,1.03125 0.75,1.03125 0.53906,0 0.71484,-0.3164 0.17579,-0.31641 0.17579,-1.32422 v -1.17188 q -0.60938,0.55079 -1.28907,0.83204 -0.66797,0.28125 -1.40625,0.28125 -1.27734,0 -2.10937,-0.51563 -0.82031,-0.51562 -1.125,-1.34766 -0.30469,-0.84375 -0.30469,-2.39062 v -5.64844 q 0,-2.21484 0.79688,-3.1875 0.79687,-0.97265 2.42578,-0.97265 0.89062,0 1.61718,0.36328 0.73829,0.36328 1.3125,1.08984 l 0.33985,-1.17187 z m -4.7461,4.125 q 0,-1.06641 -0.1289,-1.35938 -0.11719,-0.29297 -0.53906,-0.29297 -0.41016,0 -0.58594,0.33985 -0.16406,0.32812 -0.16406,1.3125 v 5.22656 q 0,1.04297 0.1289,1.35937 0.12891,0.30469 0.53906,0.30469 0.46875,0 0.60938,-0.375 0.14062,-0.375 0.14062,-1.69922 z"
         style="font-family:Impact;-inkscape-font-specification:Impact;fill:#ffffff;fill-opacity:1;stroke-width:0.7;stroke-dasharray:none"
         id="path1286" />
      <path
         d="m 272.48933,113.44781 h -6.1289 v 3.36328 q 0,1.05469 0.15234,1.35937 0.15235,0.30469 0.58594,0.30469 0.53906,0 0.71484,-0.39844 0.1875,-0.41015 0.1875,-1.57031 v -2.05078 h 4.48828 v 1.14844 q 0,1.4414 -0.1875,2.21484 -0.17578,0.77344 -0.84375,1.65234 -0.66796,0.87891 -1.69921,1.32422 -1.01954,0.4336 -2.56641,0.4336 -1.5,0 -2.64844,-0.4336 -1.14844,-0.43359 -1.79297,-1.18359 -0.63281,-0.76172 -0.8789,-1.66406 -0.2461,-0.91407 -0.2461,-2.64844 v -4.53516 q 0,-2.03906 0.55078,-3.21093 0.55079,-1.1836 1.80469,-1.80469 1.25391,-0.63281 2.88281,-0.63281 1.99219,0 3.28125,0.76171 1.30079,0.75 1.81641,2.00391 0.52734,1.24219 0.52734,3.50391 z m -4.74609,-2.53125 v -1.13672 q 0,-1.20703 -0.12891,-1.5586 -0.1289,-0.35156 -0.52734,-0.35156 -0.49219,0 -0.60937,0.30469 -0.11719,0.29297 -0.11719,1.60547 v 1.13672 z"
         style="font-family:Impact;-inkscape-font-specification:Impact;fill:#ffffff;fill-opacity:1;stroke-width:0.7;stroke-dasharray:none"
         id="path1288" />
      <path
         d="m 289.32918,105.39703 -1.88672,15.55078 h -5.14453 q -0.42188,-2.84766 -0.97266,-7.5 -0.1875,2.03906 -0.52734,4.125 l -0.52735,3.375 h -5.14453 l -2.0039,-15.55078 h 4.07812 q 0.0469,0.60937 1.03125,8.89453 0.0703,-0.84375 1.05469,-8.89453 h 3.92578 l 0.96094,8.89453 q 0.22265,-3.89063 1.07812,-8.89453 z"
         style="font-family:Impact;-inkscape-font-specification:Impact;fill:#ffffff;fill-opacity:1;stroke-width:0.7;stroke-dasharray:none"
         id="path1290" />
      <path
         d="m 300.81355,110.85796 v 3.8086 q 0,2.09765 -0.21093,3.08203 -0.21094,0.97265 -0.90235,1.82812 -0.6914,0.84375 -1.78125,1.25391 -1.07812,0.39844 -2.48437,0.39844 -1.57032,0 -2.66016,-0.33985 -1.08984,-0.35156 -1.69922,-1.04297 -0.59765,-0.70312 -0.85547,-1.6875 -0.25781,-0.99609 -0.25781,-2.97656 v -3.98437 q 0,-2.16797 0.46875,-3.38672 0.46875,-1.21875 1.6875,-1.95703 1.21875,-0.73828 3.11719,-0.73828 1.59375,0 2.73047,0.48046 1.14843,0.46875 1.76953,1.23047 0.62109,0.76172 0.84375,1.57032 0.23437,0.80859 0.23437,2.46093 z m -4.73437,-1.17187 q 0,-1.19531 -0.12891,-1.5 -0.1289,-0.31641 -0.55078,-0.31641 -0.42187,0 -0.5625,0.31641 -0.14062,0.30469 -0.14062,1.5 v 7.01953 q 0,1.10156 0.14062,1.44141 0.14063,0.32812 0.55078,0.32812 0.42188,0 0.55078,-0.30469 0.14063,-0.30468 0.14063,-1.3125 z"
         style="font-family:Impact;-inkscape-font-specification:Impact;fill:#ffffff;fill-opacity:1;stroke-width:0.7;stroke-dasharray:none"
         id="path1292" />
      <path
         d="m 307.24715,101.97515 v 18.97266 h -4.875 v -18.97266 z"
         style="font-family:Impact;-inkscape-font-specification:Impact;fill:#ffffff;fill-opacity:1;stroke-width:0.7;stroke-dasharray:none"
         id="path1294" />
      <path
         d="m 313.82137,101.97515 v 18.97266 h -4.875 v -18.97266 z"
         style="font-family:Impact;-inkscape-font-specification:Impact;fill:#ffffff;fill-opacity:1;stroke-width:0.7;stroke-dasharray:none"
         id="path1296" />
      <path
         d="m 320.51277,103.32281 v 2.44922 h 1.27735 v 2.46093 h -1.27735 v 8.32032 q 0,1.53515 0.15235,1.71093 0.16406,0.17578 1.32421,0.17578 v 2.50782 h -1.91015 q -1.61719,0 -2.3086,-0.12891 -0.6914,-0.14062 -1.21875,-0.62109 -0.52734,-0.49219 -0.65625,-1.11328 -0.1289,-0.63282 -0.1289,-2.95313 v -7.89844 h -1.01953 v -2.46093 h 1.01953 v -2.44922 z"
         style="font-family:Impact;-inkscape-font-specification:Impact;fill:#ffffff;fill-opacity:1;stroke-width:0.7;stroke-dasharray:none"
         id="path1298" />
      <path
         d="m 333.55574,113.44781 h -6.12891 v 3.36328 q 0,1.05469 0.15235,1.35937 0.15234,0.30469 0.58594,0.30469 0.53906,0 0.71484,-0.39844 0.1875,-0.41015 0.1875,-1.57031 v -2.05078 h 4.48828 v 1.14844 q 0,1.4414 -0.1875,2.21484 -0.17578,0.77344 -0.84375,1.65234 -0.66797,0.87891 -1.69922,1.32422 -1.01953,0.4336 -2.5664,0.4336 -1.5,0 -2.64844,-0.4336 -1.14844,-0.43359 -1.79297,-1.18359 -0.63281,-0.76172 -0.87891,-1.66406 -0.24609,-0.91407 -0.24609,-2.64844 v -4.53516 q 0,-2.03906 0.55078,-3.21093 0.55078,-1.1836 1.80469,-1.80469 1.2539,-0.63281 2.88281,-0.63281 1.99219,0 3.28125,0.76171 1.30078,0.75 1.81641,2.00391 0.52734,1.24219 0.52734,3.50391 z m -4.74609,-2.53125 v -1.13672 q 0,-1.20703 -0.12891,-1.5586 -0.12891,-0.35156 -0.52734,-0.35156 -0.49219,0 -0.60938,0.30469 -0.11719,0.29297 -0.11719,1.60547 v 1.13672 z"
         style="font-family:Impact;-inkscape-font-specification:Impact;fill:#ffffff;fill-opacity:1;stroke-width:0.7;stroke-dasharray:none"
         id="path1300" />
      <path
         d="m 203.26082,134.76675 2.82422,18.97266 h -5.05078 l -0.2461,-3.41016 h -1.76953 l -0.29297,3.41016 h -5.10937 l 2.50781,-18.97266 z m -2.61328,12.19922 q -0.375,-3.22266 -0.75,-7.95703 -0.75,5.4375 -0.9375,7.95703 z"
         style="font-family:Impact;-inkscape-font-specification:Impact;fill:#ffffff;fill-opacity:1;stroke-width:0.7;stroke-dasharray:none"
         id="path1302" />
      <path
         d="m 217.62801,138.18863 v 15.55078 h -4.81641 l 0.082,-1.28907 q -0.49219,0.78516 -1.21875,1.1836 -0.71484,0.38672 -1.65234,0.38672 -1.06641,0 -1.76953,-0.375 -0.70313,-0.375 -1.04297,-0.9961 -0.32813,-0.62109 -0.41016,-1.28906 -0.082,-0.67969 -0.082,-2.68359 v -10.48828 h 4.73437 v 10.58203 q 0,1.8164 0.10547,2.15625 0.11719,0.33984 0.60938,0.33984 0.52734,0 0.62109,-0.35156 0.10547,-0.35156 0.10547,-2.26172 v -10.46484 z"
         style="font-family:Impact;-inkscape-font-specification:Impact;fill:#ffffff;fill-opacity:1;stroke-width:0.7;stroke-dasharray:none"
         id="path1304" />
      <path
         d="m 225.36238,134.76675 v 2.40234 q -1.46484,0 -1.73437,0.14063 -0.25782,0.12891 -0.25782,0.76172 v 0.49219 h 1.99219 v 2.46093 h -1.125 v 12.71485 h -4.73437 v -12.71485 h -0.97266 v -2.46093 h 0.97266 q 0,-1.53516 0.10546,-2.05079 0.10547,-0.51562 0.51563,-0.91406 0.42187,-0.41015 1.17187,-0.62109 0.75,-0.21094 2.33204,-0.21094 z"
         style="font-family:Impact;-inkscape-font-specification:Impact;fill:#ffffff;fill-opacity:1;stroke-width:0.7;stroke-dasharray:none"
         id="path1306" />
      <path
         d="m 231.13972,134.76675 v 18.97266 h -4.875 v -18.97266 z"
         style="font-family:Impact;-inkscape-font-specification:Impact;fill:#ffffff;fill-opacity:1;stroke-width:0.7;stroke-dasharray:none"
         id="path1308" />
      <path
         d="m 243.54988,143.64956 v 3.8086 q 0,2.09765 -0.21094,3.08203 -0.21093,0.97265 -0.90234,1.82812 -0.69141,0.84375 -1.78125,1.25391 -1.07813,0.39844 -2.48438,0.39844 -1.57031,0 -2.66015,-0.33985 -1.08985,-0.35156 -1.69922,-1.04297 -0.59766,-0.70312 -0.85547,-1.6875 -0.25781,-0.99609 -0.25781,-2.97656 v -3.98437 q 0,-2.16797 0.46875,-3.38672 0.46875,-1.21875 1.6875,-1.95703 1.21875,-0.73828 3.11719,-0.73828 1.59375,0 2.73046,0.48046 1.14844,0.46875 1.76954,1.23047 0.62109,0.76172 0.84375,1.57032 0.23437,0.80859 0.23437,2.46093 z m -4.73437,-1.17187 q 0,-1.19531 -0.12891,-1.5 -0.12891,-0.31641 -0.55078,-0.31641 -0.42188,0 -0.5625,0.31641 -0.14063,0.30469 -0.14063,1.5 v 7.01953 q 0,1.10156 0.14063,1.44141 0.14062,0.32812 0.55078,0.32812 0.42187,0 0.55078,-0.30469 0.14063,-0.30468 0.14063,-1.3125 z m -1.72266,-8.37891 v 3.04688 h -3.05859 v -3.04688 z m 5.12109,0 v 3.04688 h -3.05859 v -3.04688 z"
         style="font-family:Impact;-inkscape-font-specification:Impact;fill:#ffffff;fill-opacity:1;stroke-width:0.7;stroke-dasharray:none"
         id="path1310" />
      <path
         d="m 254.77644,143.15738 h -4.19531 v -0.84375 q 0,-1.07813 -0.12891,-1.35938 -0.11718,-0.29297 -0.60937,-0.29297 -0.39844,0 -0.59766,0.26953 -0.19922,0.25782 -0.19922,0.78516 0,0.71484 0.0937,1.05469 0.10547,0.32812 0.59766,0.72656 0.50391,0.39844 2.05078,1.16016 2.0625,1.00781 2.70703,1.89843 0.64453,0.89063 0.64453,2.58985 0,1.89843 -0.49218,2.87109 -0.49219,0.96094 -1.65235,1.48828 -1.14843,0.51563 -2.77734,0.51563 -1.80469,0 -3.09375,-0.5625 -1.27734,-0.5625 -1.75781,-1.52344 -0.48047,-0.96094 -0.48047,-2.90625 v -0.75 h 4.19531 v 0.98437 q 0,1.25391 0.15234,1.62891 0.16407,0.375 0.63282,0.375 0.5039,0 0.70312,-0.24609 0.19922,-0.25782 0.19922,-1.06641 0,-1.11328 -0.25781,-1.39453 -0.26953,-0.28125 -2.75391,-1.66406 -2.08594,-1.17188 -2.54297,-2.1211 -0.45703,-0.96093 -0.45703,-2.27343 0,-1.86329 0.49219,-2.74219 0.49219,-0.89063 1.66406,-1.3711 1.1836,-0.48046 2.74219,-0.48046 1.54687,0 2.625,0.39843 1.08984,0.38672 1.66406,1.03125 0.58594,0.64453 0.70313,1.19532 0.1289,0.55078 0.1289,1.72265 z"
         style="font-family:Impact;-inkscape-font-specification:Impact;fill:#ffffff;fill-opacity:1;stroke-width:0.7;stroke-dasharray:none"
         id="path1312" />
      <path
         d="m 267.24519,138.18863 v 15.55078 h -4.8164 l 0.082,-1.28907 q -0.49219,0.78516 -1.21875,1.1836 -0.71485,0.38672 -1.65235,0.38672 -1.0664,0 -1.76953,-0.375 -0.70312,-0.375 -1.04297,-0.9961 -0.32812,-0.62109 -0.41015,-1.28906 -0.082,-0.67969 -0.082,-2.68359 v -10.48828 h 4.73437 v 10.58203 q 0,1.8164 0.10547,2.15625 0.11719,0.33984 0.60938,0.33984 0.52734,0 0.62109,-0.35156 0.10547,-0.35156 0.10547,-2.26172 v -10.46484 z"
         style="font-family:Impact;-inkscape-font-specification:Impact;fill:#ffffff;fill-opacity:1;stroke-width:0.7;stroke-dasharray:none"
         id="path1314" />
      <path
         d="m 273.76082,138.18863 -0.082,1.42968 q 0.51562,-0.85547 1.2539,-1.27734 0.75,-0.43359 1.72266,-0.43359 1.21875,0 1.99219,0.57421 0.77343,0.57422 0.99609,1.45313 0.22266,0.86719 0.22266,2.90625 v 10.89844 h -4.73438 v -10.76953 q 0,-1.60547 -0.10547,-1.95704 -0.10547,-0.35156 -0.58593,-0.35156 -0.50391,0 -0.63282,0.41016 -0.1289,0.39844 -0.1289,2.15625 v 10.51172 h -4.73438 v -15.55078 z"
         style="font-family:Impact;-inkscape-font-specification:Impact;fill:#ffffff;fill-opacity:1;stroke-width:0.7;stroke-dasharray:none"
         id="path1316" />
      <path
         d="m 292.25301,138.18863 v 11.97656 q 0,2.42578 -0.11719,3.14062 -0.10547,0.70313 -0.78516,1.48828 -0.67969,0.79688 -1.89844,1.20704 -1.20703,0.42187 -3.04687,0.42187 -2.26172,0 -3.63281,-0.77344 -1.3711,-0.76172 -1.41797,-3.01172 h 4.59375 q 0,1.03125 0.75,1.03125 0.53906,0 0.71484,-0.3164 0.17578,-0.31641 0.17578,-1.32422 v -1.17188 q -0.60937,0.55079 -1.28906,0.83204 -0.66797,0.28125 -1.40625,0.28125 -1.27734,0 -2.10937,-0.51563 -0.82032,-0.51562 -1.125,-1.34766 -0.30469,-0.84375 -0.30469,-2.39062 v -5.64844 q 0,-2.21484 0.79687,-3.1875 0.79688,-0.97265 2.42578,-0.97265 0.89063,0 1.61719,0.36328 0.73828,0.36328 1.3125,1.08984 l 0.33985,-1.17187 z m -4.7461,4.125 q 0,-1.06641 -0.1289,-1.35938 -0.11719,-0.29297 -0.53907,-0.29297 -0.41015,0 -0.58593,0.33985 -0.16407,0.32812 -0.16407,1.3125 v 5.22656 q 0,1.04297 0.12891,1.35937 0.12891,0.30469 0.53906,0.30469 0.46875,0 0.60938,-0.375 0.14062,-0.375 0.14062,-1.69922 z"
         style="font-family:Impact;-inkscape-font-specification:Impact;fill:#ffffff;fill-opacity:1;stroke-width:0.7;stroke-dasharray:none"
         id="path1318" />
    </g>
    <path
       style="fill:#080e0f;fill-opacity:0;stroke:none;stroke-width:0.180121;stroke-dasharray:none;stroke-opacity:1"
       d="M 124.10702,86.887631 V 9.1783082 l 86.26507,0.02347 c 85.06405,0.02314 86.24358,0.03026 84.72118,0.511135 -0.84914,0.268216 -1.68864,0.4892378 -1.86554,0.4911598 -0.1769,0.0019 -0.32164,0.105068 -0.32164,0.229213 0,0.124144 -0.81055,0.435945 -1.80121,0.69289 -1.04124,0.270062 -1.80121,0.605277 -1.80121,0.794492 0,0.180026 -0.23159,0.451259 -0.51463,0.602741 -0.28305,0.151482 -0.51464,0.417183 -0.51464,0.590446 0,0.173263 -0.23158,0.459651 -0.51463,0.636416 -0.28304,0.176766 -0.51463,0.436204 -0.51463,0.576528 0,0.539053 -1.07606,1.292706 -2.20787,1.546349 -3.76752,0.84432 -6.07715,3.443716 -6.44597,7.254681 -0.0861,0.88994 -0.29463,1.733865 -0.46333,1.875388 -0.16871,0.141524 -0.38278,0.459952 -0.47571,0.707618 -0.35637,0.94977 -0.57179,0.369316 -0.58948,-1.588447 -0.0158,-1.750824 -0.1342,-2.270426 -0.84709,-3.718508 -0.97634,-1.983222 -2.36021,-3.266837 -4.38907,-4.071092 -1.20349,-0.477072 -1.95579,-0.57103 -4.6521,-0.581019 -3.01601,-0.01117 -3.30807,0.03308 -4.68686,0.710152 -1.74921,0.858974 -3.33936,2.56994 -3.94575,4.245533 -0.281,0.77649 -0.48282,2.333903 -0.56502,4.360092 l -0.12786,3.152117 h 4.14812 4.14811 l 0.0257,-2.508828 c 0.0328,-3.208069 0.18738,-3.772739 1.06081,-3.875156 1.64378,-0.192743 1.5877,2.327401 -0.13229,5.945635 -0.85479,1.798152 -4.96707,9.050523 -5.48188,9.66779 -0.12632,0.151456 -3.44908,-0.558156 -3.44908,-0.736587 0,-0.0888 -0.57896,-0.309846 -1.28657,-0.491202 l -1.28658,-0.32974 v -9.882874 -9.882873 h -5.76819 -5.76819 l -2.37196,7.140509 c -1.30458,3.92728 -2.42028,7.226066 -2.47933,7.330636 -0.0591,0.104569 -0.38997,0.005 -0.73537,-0.221353 -0.66788,-0.437617 -1.88671,-0.307609 -2.2234,0.237162 -0.55535,0.898575 -0.37305,-0.473602 0.55145,-4.150806 0.57211,-2.275579 1.04021,-4.258418 1.04021,-4.40631 0,-0.17573 -1.42036,-0.268894 -4.0995,-0.268894 h -4.0995 l -0.41046,1.865538 c -0.22575,1.026046 -0.49987,2.386603 -0.60916,3.023459 -0.19484,1.135356 -0.2104,1.099001 -0.79847,-1.865538 l -0.59975,-3.023459 h -3.95494 c -2.17522,0 -3.95495,0.05505 -3.95495,0.122329 0,0.06728 0.80328,3.029443 1.78506,6.582582 0.98179,3.55314 1.72205,6.624477 1.64503,6.825193 -0.077,0.200716 -0.36685,0.36494 -0.64406,0.36494 -0.27721,0 -0.69904,0.09978 -0.93741,0.221722 -0.23836,0.121944 -0.75181,0.29784 -1.141,0.390875 l -0.70762,0.169154 -0.002,-5.98749 c -9.6e-4,-3.29312 -0.12338,-6.736647 -0.27193,-7.652283 -0.51517,-3.175304 -2.21224,-5.234891 -5.34771,-6.49006 -1.22396,-0.489968 -1.94387,-0.583172 -4.54227,-0.588065 -2.92563,-0.0055 -3.17562,0.03599 -4.76034,0.790219 -0.9199,0.437819 -2.05883,1.190467 -2.53095,1.672552 -2.19167,2.237914 -2.40688,3.681962 -2.33505,15.668172 l 0.0578,9.645342 -0.941,0.222544 c -0.51755,0.122398 -0.94101,0.326833 -0.94101,0.454296 0,0.127464 -0.17369,0.231754 -0.38597,0.231754 -0.21443,0 -0.38597,-0.228725 -0.38597,-0.514631 0,-0.42886 0.17154,-0.514631 1.02926,-0.514631 h 1.02926 v -3.345104 -3.345103 h -1.02927 -1.02926 V 26.413625 16.116168 l -5.83224,0.06916 -5.83224,0.06916 -3.43112,10.2902 -3.43113,10.2902 v 3.283201 3.283199 h 4.63168 4.63168 v 2.830472 2.830472 h 4.11062 4.11062 l -0.16269,0.836276 c -0.0895,0.459951 -0.26905,0.906433 -0.39905,0.992178 -0.13,0.08574 -0.30073,0.635757 -0.37939,1.222249 -0.0787,0.586492 -0.23775,1.066347 -0.35352,1.066347 -0.11576,0 -0.34717,0.694752 -0.51422,1.543894 -0.16706,0.849142 -0.40447,1.543894 -0.52759,1.543894 -0.12311,0 -0.22383,0.231584 -0.22383,0.514631 0,0.283047 -0.17016,0.514631 -0.37814,0.514631 -0.26088,0 -0.36936,0.259326 -0.34983,0.836276 0.0344,1.01652 -0.5689,3.795406 -0.82398,3.795406 -0.10092,0 -0.25755,0.463168 -0.34807,1.029262 -0.0905,0.566095 -0.26044,1.029263 -0.37759,1.029263 -0.11715,0 -0.36594,0.810544 -0.55286,1.80121 -0.18693,0.990665 -0.42999,1.801209 -0.54014,1.801209 -0.11015,0 -0.27842,0.521064 -0.37392,1.15792 -0.0955,0.636857 -0.26823,1.157921 -0.38384,1.157921 -0.11561,0 -0.24721,0.260532 -0.29243,0.57896 -0.0787,0.554052 -0.20123,0.582102 -2.84837,0.651994 l -2.76614,0.07303 v 1.020558 c 0,1.019106 -10e-4,1.020557 -1.02926,1.020557 h -1.02927 v 4.11705 4.117051 h 1.02927 1.02926 v 1.123767 1.123766 l 3.3688,0.121646 c 2.51974,0.09099 3.42535,0.213089 3.59314,0.484456 0.31506,0.509529 12.50371,0.539668 12.81754,0.03169 0.1275,-0.206388 1.04475,-0.390407 2.43503,-0.488522 l 2.23047,-0.157405 v -1.119701 -1.119701 h 2.05853 2.05852 v 1.15792 1.15792 h 3.60242 3.60242 v 1.029263 1.029263 l 3.79541,0.0082 c 3.21143,0.0069 3.72612,0.06078 3.34511,0.350014 -0.24767,0.188005 -0.45031,0.47282 -0.45031,0.632924 0,0.160102 -0.23158,0.435723 -0.51463,0.612489 -0.28305,0.176765 -0.51463,0.463152 -0.51463,0.636416 0,0.173263 -0.23158,0.438965 -0.51463,0.590447 -0.28305,0.151481 -0.51463,0.396793 -0.51463,0.545136 0,0.148345 -0.37633,0.647089 -0.83628,1.10832 -0.45995,0.461233 -1.00996,1.061275 -1.22225,1.333425 -0.21228,0.272152 -0.90703,1.128103 -1.54389,1.902116 -0.63686,0.774013 -1.33161,1.629963 -1.5439,1.902116 -0.21228,0.272149 -0.7623,0.872192 -1.22225,1.333425 -0.45995,0.46123 -0.83627,0.959975 -0.83627,1.10832 0,0.148342 -0.23159,0.393654 -0.51463,0.545136 -0.28305,0.151483 -0.51464,0.376513 -0.51464,0.500073 0,0.12355 -0.52106,0.76078 -1.15792,1.416062 -0.63685,0.65527 -1.15792,1.30177 -1.15792,1.43667 0,0.13489 -0.23158,0.38988 -0.51463,0.56665 -0.28305,0.17676 -0.51463,0.46723 -0.51463,0.64547 0,0.17824 -0.28059,0.32407 -0.62354,0.32407 -0.97775,0 -2.10516,1.12505 -2.4333,2.4282 -0.1591,0.63184 -0.54957,1.44515 -0.86773,1.80736 -0.31815,0.36222 -0.81004,0.95345 -1.09308,1.31387 -0.28305,0.3604 -0.91991,1.10354 -1.41524,1.65141 -0.49533,0.54787 -1.07429,1.20449 -1.28658,1.45915 -0.34655,0.41572 -0.39316,0.0102 -0.45638,-3.96982 l -0.0704,-4.43285 h -2.55189 c -1.44175,0 -2.62182,0.11314 -2.71263,0.26007 -0.10174,0.16463 -0.36443,0.11741 -0.71573,-0.12865 -0.75496,-0.52879 -3.48292,-0.52053 -4.24444,0.0129 -1.31169,0.91874 -1.47101,1.66955 -1.47101,6.9319 0,5.26235 0.15932,6.01316 1.47101,6.9319 0.55749,0.39048 0.54267,0.40159 -0.53577,0.40159 h -1.10914 l 0.17601,1.0936 c 0.0968,0.60147 0.34485,1.35965 0.55122,1.68483 0.44803,0.70596 1.83299,1.59363 2.4885,1.59498 0.42268,7.7e-4 0.42966,0.04 0.0711,0.39852 -0.35854,0.35855 -0.50509,0.3396 -1.49304,-0.19298 -0.60251,-0.32481 -1.23972,-0.77996 -1.41602,-1.01146 -0.1763,-0.23149 -0.59995,-0.49102 -0.94145,-0.57673 -0.79802,-0.2003 -1.12173,-0.93224 -0.41229,-0.93224 0.49521,0 0.50656,-0.22487 0.50656,-10.03531 v -10.03532 h -2.95913 -2.95913 v 1.80121 1.80121 h -4.37437 -4.37436 v 1.91759 1.91759 l 1.51387,0.0766 1.51387,0.0766 -1.62621,4.11705 -1.62622,4.11705 -0.0178,-4.63169 c -0.01,-2.54742 -0.13628,-5.05846 -0.28116,-5.58007 -0.14487,-0.52162 -0.62699,-1.25433 -1.07137,-1.62826 -0.74113,-0.62362 -0.94803,-0.66898 -2.5013,-0.54839 -0.93133,0.0723 -3.11179,0.13195 -4.84545,0.13256 l -3.15212,0.001 v 8.25023 8.25022 h 2.83048 2.83047 v -6.56154 c 0,-4.20283 0.0925,-6.56155 0.25731,-6.56155 0.16482,0 0.25732,2.35872 0.25732,6.56155 v 6.56154 h 5.14631 c 4.11258,0 5.14631,0.0688 5.14631,0.3425 0,0.18837 -0.28948,0.49741 -0.64328,0.68677 -0.50696,0.27131 -0.64329,0.54461 -0.64329,1.28954 0,0.81637 0.12279,1.01139 0.9006,1.43027 0.49533,0.26675 0.90061,0.56127 0.90061,0.65449 0,0.0932 0.40527,0.36179 0.9006,0.59684 0.49533,0.23505 0.90061,0.5264 0.90061,0.64744 0,0.12104 0.3489,0.3417 0.77534,0.49035 0.42643,0.14866 0.84409,0.44947 0.92813,0.66847 0.084,0.21899 0.31409,0.39817 0.51124,0.39817 0.19714,0 0.56865,0.20264 0.82557,0.4503 0.25692,0.24767 0.86483,0.66965 1.35091,0.93772 0.48607,0.26809 1.14921,0.7271 1.47363,1.02003 0.50591,0.45681 0.66512,0.48561 1.11865,0.20237 0.29084,-0.18163 0.59012,-0.2689 0.66508,-0.19395 0.20955,0.20955 0.50865,2.05992 0.39035,2.41484 -0.14971,0.44918 -0.83406,0.39095 -0.83406,-0.0709 0,-0.21228 -0.17006,-0.38597 -0.3779,-0.38597 -0.23019,0 -0.32001,-0.15086 -0.22979,-0.38598 0.0938,-0.2444 -0.004,-0.38597 -0.26539,-0.38597 -0.23519,0 -0.4135,0.21153 -0.4135,0.49054 0,0.36386 -0.13291,0.45579 -0.51463,0.35596 -0.35791,-0.0936 -0.51463,-0.008 -0.51463,0.28141 0,0.24444 0.21222,0.41598 0.51463,0.41598 0.28305,0 0.51463,0.1158 0.51463,0.25732 0,0.14152 0.17369,0.25732 0.38597,0.25732 0.21229,0 0.38598,0.11579 0.38598,0.25731 0,0.38745 -0.68349,0.30901 -1.12116,-0.12866 -0.49735,-0.49734 -1.19468,-0.49734 -1.19468,0 0,0.21229 0.18052,0.38598 0.40116,0.38598 0.22063,0 0.32933,0.11621 0.24154,0.25826 -0.0878,0.14204 -0.442,0.18738 -0.78713,0.10076 -0.40111,-0.10067 -0.62752,-0.0473 -0.62752,0.14788 0,0.16795 -0.52106,0.79063 -1.15792,1.38373 -0.63686,0.5931 -1.15792,1.2004 -1.15792,1.34956 0,0.14915 -0.57896,0.89112 -1.28658,1.6488 -1.38228,1.48009 -1.53367,1.80121 -0.84914,1.80121 0.34023,0 0.36882,0.0686 0.12866,0.30878 -0.42025,0.42025 -0.38808,0.72049 0.0772,0.72049 0.21228,0 0.38597,0.17368 0.38597,0.38597 0,0.25732 -0.25732,0.38597 -0.77195,0.38597 -0.53747,0 -0.77194,-0.1256 -0.77194,-0.4135 0,-0.27134 -0.13993,-0.35981 -0.40702,-0.25732 -0.22386,0.0859 -0.45545,0.15619 -0.51463,0.15619 -0.0592,0 -0.10762,0.23159 -0.10762,0.51463 0,0.28591 -0.17154,0.51463 -0.38597,0.51463 -0.21229,0 -0.38597,0.10946 -0.38597,0.24323 0,0.13378 0.81054,0.2356 1.80121,0.22628 0.99066,-0.009 1.80121,-0.11877 1.80121,-0.24322 0,-0.12446 0.39176,-0.22629 0.87059,-0.22629 0.65419,0 0.90404,0.12793 1.00517,0.51464 0.22123,0.84597 0.69739,0.58244 0.69739,-0.38598 0,-0.72906 0.098,-0.9006 0.51463,-0.9006 0.28305,0 0.51463,-0.11579 0.51463,-0.25732 0,-0.14152 0.1158,-0.25731 0.25732,-0.25731 0.14152,0 0.25732,0.30186 0.25732,0.67082 0,0.49056 0.10371,0.63102 0.38597,0.5227 0.22663,-0.087 0.38597,-0.003 0.38597,0.20226 0,0.1927 0.20264,0.42844 0.4503,0.52386 0.42887,0.16523 0.42887,0.18553 0,0.42629 -0.24766,0.13904 -0.4503,0.52363 -0.4503,0.85466 0,0.48412 0.17619,0.63492 0.90061,0.77082 0.88524,0.16608 1.27043,0.66027 0.51463,0.66027 -0.21229,0 -0.38598,0.11579 -0.38598,0.25731 0,0.14153 -0.22074,0.25732 -0.49054,0.25732 -0.36385,0 -0.45578,-0.13291 -0.35596,-0.51463 0.0907,-0.3468 0.008,-0.51463 -0.25387,-0.51463 -0.47767,0 -0.70083,-0.53929 -0.70083,-1.6936 0,-1.05553 -0.67467,-1.22811 -0.9236,-0.23627 -0.0888,0.35381 -0.32259,0.64329 -0.51954,0.64329 -0.19694,0 -0.35807,0.11579 -0.35807,0.25731 0,0.14153 -0.1158,0.25732 -0.25732,0.25732 -0.14152,0 -0.25732,-0.17589 -0.25732,-0.39088 0,-0.28844 -0.16857,-0.34856 -0.64328,-0.22942 -0.47651,0.1196 -0.64329,0.0593 -0.64329,-0.23276 0,-0.3041 -0.2794,-0.38551 -1.22225,-0.35611 -0.67224,0.021 -1.30427,0.1559 -1.40452,0.29985 -0.1197,0.17188 -0.29196,0.15205 -0.50177,-0.0578 -0.36649,-0.36649 -1.24583,-0.43156 -1.24583,-0.0922 0,0.12501 -0.24688,0.29186 -0.54862,0.37077 -0.40318,0.10543 -0.51189,0.28392 -0.41006,0.6733 0.0914,0.34942 0.0153,0.52983 -0.22333,0.52983 -0.19904,0 -0.36188,0.23159 -0.36188,0.51463 0,0.34309 -0.17155,0.51463 -0.51463,0.51463 -0.28305,0 -0.51464,0.11111 -0.51464,0.24691 0,0.13579 -0.30576,0.53042 -0.67948,0.87695 -0.46813,0.43408 -0.6357,0.79749 -0.53872,1.16833 0.10647,0.40716 0.0213,0.53829 -0.34978,0.53829 -0.2698,0 -0.49054,0.17368 -0.49054,0.38597 0,0.21228 -0.17658,0.38597 -0.39241,0.38597 -0.22968,0 -0.45608,0.31839 -0.54596,0.76777 -0.0845,0.42228 -0.25613,0.70437 -0.38151,0.62689 -0.26534,-0.16399 -0.99596,0.4983 -0.99596,0.9028 0,0.15164 0.17005,0.2757 0.3779,0.2757 0.23019,0 0.32,0.15086 0.22978,0.38597 -0.10277,0.26783 0.0178,0.38598 0.39405,0.38598 0.29819,0 0.54216,0.0925 0.54216,0.20564 0,0.11311 -0.40527,0.15834 -0.9006,0.10051 -0.88217,-0.10299 -1.21709,0.23982 -0.60431,0.61854 0.20705,0.12797 0.16127,0.28186 -0.152,0.51092 -0.30783,0.2251 -0.39314,0.50156 -0.27227,0.88237 0.14996,0.47249 0.0868,0.54194 -0.42697,0.4692 -0.33164,-0.0469 -0.71728,-0.3459 -0.85698,-0.66433 -0.3613,-0.82353 -0.6466,-0.7162 -0.6466,0.24324 0,0.83867 1.06388,2.26559 1.68918,2.26559 0.16848,0 0.46049,0.18575 0.64891,0.41278 0.18841,0.22703 0.57891,0.51946 0.86778,0.64985 0.28886,0.1304 0.91865,0.52361 1.39953,0.8738 1.03448,0.75335 1.82749,0.83117 1.82749,0.17935 0,-0.25156 0.17551,-0.70795 0.39002,-1.01421 0.35369,-0.50497 0.3477,-0.58085 -0.0643,-0.81464 -0.43273,-0.24553 -0.43292,-0.27948 -0.004,-0.71348 0.43048,-0.43562 0.4503,-0.43059 0.4503,0.11409 0,0.65934 0.61755,0.76093 1.18375,0.19473 0.20627,-0.20627 0.56399,-0.30253 0.79493,-0.21391 0.33061,0.12687 0.38886,0.0425 0.27396,-0.39691 -0.11204,-0.42838 -0.032,-0.55803 0.3446,-0.55803 0.2698,0 0.49054,-0.11579 0.49054,-0.25732 0,-0.14152 -0.12406,-0.25731 -0.27569,-0.25731 -0.42619,0 -1.13622,-0.80915 -1.16874,-1.33189 -0.0161,-0.25813 0.0708,-0.46932 0.19299,-0.46932 0.1222,0 0.22218,0.17369 0.22218,0.38597 0,0.21229 0.16404,0.38598 0.36453,0.38598 0.20049,0 0.40825,0.13115 0.46168,0.29146 0.15437,0.4631 1.11387,0.0247 1.49191,-0.6817 0.1881,-0.35147 0.55402,-0.63903 0.81315,-0.63903 0.25913,0 0.47115,-0.11579 0.47115,-0.25731 0,-0.14153 -0.17369,-0.25732 -0.38597,-0.25732 -0.21229,0 -0.38598,-0.11579 -0.38598,-0.25731 0,-0.38671 -0.35842,-0.31085 -0.91641,0.19395 -0.57262,0.51803 -1.65674,0.4636 -1.65674,-0.0832 0,-0.23021 0.26568,-0.36808 0.70931,-0.36808 0.39013,0 1.08488,-0.10771 1.5439,-0.23935 0.51463,-0.1476 0.83457,-0.1476 0.83457,0 0,0.42299 0.93513,0.25523 1.39212,-0.24973 0.3045,-0.33647 0.35319,-0.54436 0.15604,-0.6662 -0.20988,-0.12972 -0.20844,-0.27125 0.005,-0.52891 0.16058,-0.19348 0.2144,-0.4773 0.1196,-0.63069 -0.1154,-0.18671 0.0438,-0.22466 0.48147,-0.1148 0.50167,0.12591 0.79801,0.009 1.27332,-0.50432 0.34072,-0.36763 0.75094,-0.66842 0.91162,-0.66842 0.16067,0 0.29214,-0.14583 0.29214,-0.32407 0,-0.17825 0.23158,-0.46871 0.51463,-0.64548 0.28304,-0.17676 0.51463,-0.4362 0.51463,-0.57652 0,-0.27096 0.92814,-1.2844 1.1763,-1.2844 0.25251,0 0.88222,-0.72155 0.88222,-1.01088 0,-0.15164 0.1158,-0.2757 0.25732,-0.2757 0.14152,0 0.25732,-0.17617 0.25732,-0.39149 0,-0.21532 0.28948,-0.52338 0.64328,-0.68459 0.69221,-0.31539 0.82578,-0.62141 0.34168,-0.78278 -0.16588,-0.0553 0.0694,-0.25422 0.52289,-0.44205 0.45347,-0.18783 0.88342,-0.28259 0.95544,-0.21056 0.072,0.072 -0.16327,2.30104 -0.52288,4.95337 -0.35961,2.65233 -0.65384,4.92483 -0.65384,5.05 0,0.12516 1.38398,0.22757 3.07551,0.22757 h 3.07551 l 0.0766,-1.60564 c 0.0599,-1.25475 0.1702,-1.62345 0.50487,-1.68717 0.35034,-0.0667 0.46113,0.22543 0.60893,1.60564 l 0.18068,1.68717 h 2.92916 2.92915 v -0.80665 -0.80665 l 0.50591,0.64316 c 0.73936,0.93994 1.82352,1.30167 3.4049,1.13602 0.75029,-0.0786 2.78262,-0.14081 4.51628,-0.13826 l 3.15212,0.005 v -6.32036 c 0,-6.14881 0.014,-6.32036 0.51463,-6.32036 0.50063,0 0.51463,0.17155 0.51463,6.30424 v 6.30423 h 2.83048 2.83047 v -6.30423 c 0,-6.13269 0.014,-6.30424 0.51463,-6.30424 0.50063,0 0.51463,0.17155 0.51463,6.30424 v 6.30423 h 2.95913 2.95913 v -9.90665 -9.90665 h -5.12956 c -2.82126,0 -5.41546,0.10869 -5.76489,0.24155 -1.08231,0.41149 -1.71402,1.30055 -1.71402,2.41229 0,0.99722 -0.0125,1.01041 -0.80411,0.85208 -0.44226,-0.0884 -1.06828,-0.16082 -1.39115,-0.16082 -0.77152,0 -0.58802,-0.82985 0.28706,-1.29818 0.34189,-0.18297 0.62162,-0.48582 0.62162,-0.67299 0,-0.18717 0.23158,-0.48494 0.51463,-0.6617 0.36405,-0.22736 0.51463,-0.60007 0.51463,-1.27379 v -0.9524 l -1.86554,0.14862 c -1.02604,0.0817 -1.98133,0.23589 -2.12285,0.34256 -0.14152,0.10666 -1.4222,0.27554 -2.84595,0.3753 l -2.58864,0.18136 -1.17976,-0.7962 c -0.64886,-0.43792 -1.2498,-0.79621 -1.33542,-0.79621 -0.36793,0 -1.26672,-1.13066 -0.97587,-1.22761 0.16806,-0.056 0.30557,-0.26491 0.30557,-0.4642 0,-0.1993 0.23158,-0.50698 0.51463,-0.68375 0.28304,-0.17676 0.51463,-0.44149 0.51463,-0.58828 0,-0.14679 0.20264,-0.4546 0.4503,-0.68403 0.24767,-0.22942 0.68189,-0.70884 0.96493,-1.06536 2.99251,-3.76935 2.72846,-3.61211 6.09936,-3.6322 2.60828,-0.0155 3.02323,-0.0834 4.04182,-0.66062 2.07417,-1.17545 2.19872,-1.51567 2.29099,-6.25778 0.0446,-2.28993 0.176,-4.2602 0.29209,-4.37839 0.1161,-0.1182 0.29502,1.06999 0.39761,2.64041 0.28742,4.39981 1.14457,5.67864 4.18519,6.2441 3.21341,0.5976 6.01716,-0.48755 7.03164,-2.72149 0.41106,-0.9052 0.48179,-1.72294 0.48662,-5.62649 0.005,-4.39392 0.0252,-4.56735 0.52028,-4.56735 0.49794,0 0.51463,0.17155 0.51463,5.28775 0,5.79511 0.13004,6.42263 1.46027,7.04719 0.3998,0.18771 1.85589,0.39942 3.23574,0.47047 l 2.50883,0.12918 0.035,-1.38531 c 0.0193,-0.76192 0.0833,-1.13917 0.14237,-0.83833 0.27994,1.42679 1.98688,2.13823 5.15528,2.14869 1.77575,0.006 1.87571,0.0386 2.23378,0.73101 0.62242,1.20363 2.17195,1.71963 5.164,1.71963 2.27756,0 2.71281,-0.0754 3.71494,-0.64329 2.26076,-1.28119 2.19995,-1.01018 2.28469,-10.18236 l 0.0747,-8.08705 h -2.7122 c -1.68186,0 -2.71221,0.10026 -2.71221,0.26392 0,0.15129 -0.324,0.0964 -0.75916,-0.12865 -0.41755,-0.21592 -1.39532,-0.39258 -2.17284,-0.39258 -1.64418,0 -2.62741,0.6529 -3.14728,2.08992 l -0.31445,0.86921 -0.0196,-1.22225 c -0.0181,-1.12697 -0.0697,-1.22225 -0.66287,-1.22225 -0.59087,0 -0.64328,-0.0944 -0.64328,-1.15792 v -1.15792 h -2.83048 -2.83047 v 1.15792 c 0,1.11503 -0.0286,1.15792 -0.77195,1.15792 -0.74335,0 -0.77194,-0.0429 -0.77194,-1.15792 v -1.15792 h -2.83047 -2.83048 v 1.15792 c 0,0.98637 -0.0762,1.15792 -0.51463,1.15792 -0.45971,0 -0.51465,0.17161 -0.51483,1.60822 l -2.1e-4,1.60822 -0.54256,-1.0961 c -0.75782,-1.53099 -2.54088,-2.63497 -4.25577,-2.63497 -0.72364,0 -0.74591,-0.10647 -0.15459,-0.73899 0.24767,-0.26492 0.85558,-0.98862 1.35091,-1.60822 0.49533,-0.61961 1.27693,-1.495102 1.73688,-1.945552 0.45995,-0.45045 0.83628,-0.938492 0.83628,-1.08454 0,-0.146049 0.23158,-0.389483 0.51463,-0.540965 0.28305,-0.151481 0.51463,-0.417183 0.51463,-0.590446 0,-0.173264 0.23158,-0.459651 0.51463,-0.636417 0.28305,-0.176765 0.51463,-0.425576 0.51463,-0.552912 0,-0.127335 0.52107,-0.767655 1.15792,-1.422932 0.63686,-0.655277 1.15792,-1.264097 1.15792,-1.352937 0,-0.08884 0.16847,-0.344924 0.37438,-0.569082 1.08132,-1.177178 2.3866,-2.669882 2.84207,-3.250172 0.28305,-0.360615 0.74622,-0.930057 1.02926,-1.265424 0.82485,-0.977321 1.48241,-1.765291 2.43551,-2.918549 l 0.89162,-1.078858 h 4.44768 4.44769 v -2.058525 -2.058525 h -1.15793 -1.15792 v -1.621253 c 0,-1.505582 0.40823,-3.003738 0.81975,-3.008421 0.097,-0.001 0.90676,-0.899396 1.79935,-1.996204 1.50853,-1.853673 2.09929,-2.557033 3.42782,-4.081113 0.28305,-0.324709 0.74622,-0.883347 1.02926,-1.241414 0.28305,-0.358068 1.06465,-1.238834 1.73689,-1.957256 0.67223,-0.718426 1.22224,-1.411135 1.22224,-1.539355 0,-0.128223 0.23159,-0.357072 0.51464,-0.508554 0.28304,-0.151481 0.51463,-0.440961 0.51463,-0.643289 0,-0.202327 0.23158,-0.491807 0.51463,-0.643289 0.28305,-0.151482 0.51463,-0.417183 0.51463,-0.590447 0,-0.173263 0.23158,-0.45965 0.51463,-0.636416 0.28305,-0.176765 0.51463,-0.422165 0.51463,-0.545334 0,-0.123169 0.55001,-0.816802 1.22225,-1.541408 0.67224,-0.724606 1.45383,-1.615798 1.73688,-1.98043 0.28305,-0.364632 0.86201,-1.067371 1.28658,-1.561643 1.18722,-1.382128 1.75473,-2.065854 2.31584,-2.790105 0.28305,-0.365337 1.06464,-1.257368 1.73688,-1.98229 0.67224,-0.72492 1.22225,-1.415756 1.22225,-1.535189 0,-0.119433 0.70826,-0.217151 1.57391,-0.217151 1.5077,0 1.56722,0.02434 1.4151,0.57896 -0.0873,0.318428 -0.23144,1.01318 -0.32022,1.543894 -0.0888,0.530713 -0.2553,0.964934 -0.37007,0.964934 -0.11476,0 -0.2868,0.521064 -0.3823,1.15792 -0.0955,0.636856 -0.27046,1.15792 -0.38879,1.15792 -0.11833,0 -0.35184,0.694753 -0.5189,1.543894 -0.16705,0.849142 -0.39132,1.543894 -0.49836,1.543894 -0.10704,0 -0.27276,0.521064 -0.36826,1.15792 -0.0955,0.636857 -0.26923,1.157921 -0.38605,1.157921 -0.11683,0 -0.35443,0.752648 -0.52801,1.672551 -0.17357,0.919904 -0.41827,1.672552 -0.54376,1.672552 -0.1255,0 -0.2289,0.260532 -0.22977,0.57896 -7.7e-4,0.318428 -0.17156,0.904843 -0.3793,1.303142 -0.20775,0.398299 -0.51969,1.411479 -0.69319,2.251512 -0.17351,0.840032 -0.401,1.52733 -0.50553,1.52733 -0.10454,0 -0.26821,0.521064 -0.36371,1.157921 l -0.17364,1.15792 h -4.98844 -4.98844 v 1.029263 1.029262 h -1.15792 -1.15792 v 4.11705 4.117051 h 1.15792 1.15792 v 1.15792 1.15792 h 6.28279 c 3.45554,0 6.32139,-0.09875 6.36857,-0.219438 0.0472,-0.120692 1.76475,-0.1281 3.81684,-0.01647 2.0521,0.111637 6.19166,0.210384 9.19904,0.219439 l 5.46795,0.01647 v -1.15792 -1.15792 h 1.28658 1.28658 v -6.304264 -6.304233 h -1.28658 -1.28658 V 67.58922 66.302642 h -2.44449 c -2.27296,0 -2.4445,-0.03611 -2.4445,-0.514631 0,-0.283048 -0.10997,-0.514632 -0.24437,-0.514632 -0.1344,0 -0.38105,-0.694752 -0.54811,-1.543894 -0.16706,-0.849141 -0.39132,-1.543893 -0.49836,-1.543893 -0.10704,0 -0.27276,-0.521065 -0.36826,-1.157921 -0.0955,-0.636856 -0.26923,-1.15792 -0.38606,-1.15792 -0.11682,0 -0.35443,-0.752648 -0.528,-1.672552 -0.17357,-0.919903 -0.40347,-1.672552 -0.51088,-1.672552 -0.10741,0 -0.26936,-0.463168 -0.35988,-1.029262 -0.0905,-0.566095 -0.26043,-1.029263 -0.37758,-1.029263 -0.11715,0 -0.36594,-0.810544 -0.55287,-1.801209 -0.18692,-0.990665 -0.42999,-1.80121 -0.54014,-1.80121 -0.11015,0 -0.27841,-0.521064 -0.37391,-1.15792 -0.0955,-0.636856 -0.26094,-1.15792 -0.36765,-1.15792 -0.20846,0 -0.79804,-2.632692 -0.62829,-2.805577 0.056,-0.05707 0.59555,0.42104 1.19892,1.062461 2.00876,2.135427 4.60681,2.934832 8.82166,2.714369 2.06436,-0.10798 2.6904,-0.252249 4.09481,-0.943636 1.8793,-0.925178 2.76552,-1.850027 3.72497,-3.887352 l 0.66649,-1.415236 V 32.980004 c 0,-5.660944 -0.10098,-10.830954 -0.2244,-11.488911 -0.21603,-1.151619 -0.19095,-1.228774 0.67159,-2.066421 0.78715,-0.764419 0.9185,-1.080199 1.08116,-2.59912 0.10184,-0.950942 0.27999,-1.728985 0.39588,-1.728985 0.1159,0 0.29212,-0.810544 0.39161,-1.801209 0.0995,-0.990665 0.28493,-1.80121 0.41209,-1.80121 0.12716,0 0.23278,-0.260532 0.23471,-0.57896 0.002,-0.318428 0.0733,-0.839492 0.15867,-1.1579198 l 0.15516,-0.57896 H 328.188 355.17613 V 86.887631 164.59696 H 239.64175 124.10702 Z m 164.88154,68.144189 c 0.46355,-0.14139 1.19141,-0.5504 1.61746,-0.90891 1.51134,-1.2717 1.52812,-1.38116 1.52812,-9.96977 v -7.8609 h -2.52169 c -1.38694,0 -2.64088,0.11918 -2.78655,0.26485 -0.18158,0.18158 -0.50111,0.14164 -1.01639,-0.12708 -1.65303,-0.86202 -4.12214,-0.26277 -4.91499,1.19287 -0.38716,0.71079 -0.48115,1.60506 -0.55237,5.25539 -0.0952,4.87934 0.12578,6.24253 1.16859,7.20898 l 0.66324,0.61467 h -0.97165 -0.97164 l 0.13009,1.1542 c 0.16,1.41947 0.7152,2.30525 1.79485,2.86356 1.57188,0.81285 4.71995,0.95666 6.83293,0.31214 z m -117.02083,0.0445 c 0,-0.14152 -0.11579,-0.25731 -0.25732,-0.25731 -0.14152,0 -0.25731,0.11579 -0.25731,0.25731 0,0.14152 0.11579,0.25732 0.25731,0.25732 0.14153,0 0.25732,-0.1158 0.25732,-0.25732 z m -0.16887,-1.08235 c 0.0816,-0.31225 0.10067,-0.61552 0.0423,-0.67393 -0.20279,-0.20278 -0.93456,0.72453 -0.77522,0.98236 0.26362,0.42654 0.57502,0.2955 0.73295,-0.30843 z m 69.05184,-1.57228 c 2.14086,-1.12541 2.74363,-3.18688 2.60574,-8.91177 -0.10689,-4.43803 -0.41235,-5.32241 -2.2383,-6.4804 l -1.16252,-0.73724 h 1.07964 1.07964 v -2.05853 -2.05852 h -2.05852 -2.05853 v 1.92987 c 0,1.75832 -0.0457,1.92986 -0.51463,1.92986 -0.46888,0 -0.51463,-0.17154 -0.51463,-1.92986 v -1.92987 h -2.05852 -2.05853 v 2.05852 2.05853 l 0.96493,0.001 0.96494,10e-4 -0.79477,0.48464 c -2.08371,1.27064 -2.51657,2.87003 -2.37667,8.7818 0.0773,3.26703 0.19578,4.41808 0.51596,5.01326 0.99484,1.84928 2.50855,2.48711 5.61461,2.36582 1.40497,-0.0549 2.4815,-0.24013 3.01016,-0.51803 z m 12.25651,-0.14889 c 1.19466,-0.73834 1.67975,-1.65816 1.87672,-3.55859 0.29629,-2.85884 -0.5475,-4.35244 -3.24665,-5.7469 l -1.41693,-0.73202 2.12285,-0.0124 2.12285,-0.0124 v -1.79226 c 0,-1.63057 -0.0707,-1.8728 -0.78394,-2.68512 -1.0918,-1.24349 -2.86435,-1.79596 -5.2674,-1.64174 -3.34206,0.21448 -4.57952,1.40583 -4.70353,4.52827 -0.0998,2.51217 0.34389,3.44702 2.22039,4.67864 l 1.37217,0.9006 -1.82247,0.0756 -1.82247,0.0756 v 0.85421 c 0,4.25083 1.75436,5.87513 6.19005,5.73117 1.76551,-0.0573 2.3912,-0.18858 3.15836,-0.66272 z m 10.91519,0.52102 3.15212,-0.0103 v -8.24562 -8.24562 h -2.83047 -2.83047 v 6.4177 c 0,4.00091 -0.0969,6.4776 -0.25732,6.57674 -0.16898,0.10444 -0.25731,-2.09874 -0.25731,-6.4177 v -6.57675 h -2.84178 -2.84177 l 0.0756,7.31517 c 0.072,6.96201 0.10167,7.35022 0.61507,8.04111 0.82456,1.10965 1.57868,1.39798 3.32029,1.26948 0.84915,-0.0627 2.96235,-0.11855 4.69601,-0.12422 z m 9.58501,-6.46623 c 0,-4.11705 0.0926,-6.43289 0.25732,-6.43289 0.16468,0 0.25731,2.31584 0.25731,6.43289 v 6.43289 h 2.84838 2.84838 l -0.0822,-7.26917 c -0.0759,-6.70986 -0.12094,-7.32631 -0.58514,-8.01189 -0.9143,-1.35032 -3.22528,-1.85836 -4.78485,-1.05188 -0.43516,0.22504 -0.75917,0.27995 -0.75917,0.12866 0,-0.16436 -1.06779,-0.26392 -2.83047,-0.26392 h -2.83047 v 8.2341 8.2341 h 2.83047 2.83047 z m -88.25927,4.889 c 0,-0.14153 -0.11579,-0.25732 -0.25731,-0.25732 -0.14153,0 -0.25732,0.11579 -0.25732,0.25732 0,0.14152 0.11579,0.25731 0.25732,0.25731 0.14152,0 0.25731,-0.11579 0.25731,-0.25731 z m 1.80121,-9.00605 c 0,-0.14152 -0.11579,-0.25732 -0.25731,-0.25732 -0.14153,0 -0.25732,0.1158 -0.25732,0.25732 0,0.14152 0.11579,0.25731 0.25732,0.25731 0.14152,0 0.25731,-0.11579 0.25731,-0.25731 z m 81.44041,-22.15585 c 1.44005,-0.39336 2.67375,-1.40097 3.2388,-2.64524 0.40684,-0.89589 0.48162,-1.7135 0.48519,-5.30484 0.005,-4.65873 -0.18604,-5.754 -1.21441,-6.97615 -1.04019,-1.2362 -2.44042,-1.76128 -4.69677,-1.76128 -3.07638,0 -5.10911,1.28605 -5.58637,3.53436 -0.26355,1.24151 -0.26351,8.39228 5e-5,9.63419 0.59143,2.78688 4.30286,4.46699 7.77351,3.51896 z m 28.1709,0.006 c 1.54595,-0.35621 2.78999,-1.35442 3.39636,-2.7252 0.44775,-1.01223 0.49129,-1.63101 0.41972,-5.96599 -0.0783,-4.744 -0.093,-4.85643 -0.7645,-5.87019 -0.9273,-1.39987 -2.2042,-1.97312 -4.67269,-2.09777 -3.1649,-0.15982 -4.76145,0.65164 -5.73954,2.91716 -0.3629,0.84058 -0.44292,1.83865 -0.44328,5.52878 -5.1e-4,3.97381 0.0609,4.6391 0.52186,5.66094 0.66997,1.48527 1.33247,2.05904 2.84838,2.46687 1.50763,0.4056 2.92551,0.43291 4.43369,0.0854 z m 33.91332,-0.33535 c 1.11776,-0.57802 2.32051,-2.07517 2.55174,-3.17635 0.26761,-1.27434 0.26567,-7.57746 -0.003,-9.15107 -0.43414,-2.54462 -2.58588,-4.03056 -5.83654,-4.03056 -2.96323,0 -4.53805,0.89195 -5.28814,2.99512 l -0.35021,0.98197 -0.0113,-1.73688 c -0.0109,-1.67811 -0.0331,-1.73687 -0.65458,-1.73687 -0.59088,0 -0.64329,-0.0943 -0.64329,-1.15792 v -1.15792 h -2.83047 -2.83048 v 1.15792 c 0,0.98637 -0.0762,1.15792 -0.51463,1.15792 -0.46888,0 -0.51463,-0.17155 -0.51463,-1.92987 v -1.92987 h -2.95913 -2.95913 v 10.03531 10.03531 h 2.95913 2.95913 v -6.43289 c 0,-6.26134 0.0137,-6.43289 0.51463,-6.43289 0.49798,0 0.51463,0.17155 0.51463,5.2996 0,7.12447 0.0902,7.26865 4.69602,7.50581 l 2.50882,0.12918 10e-4,-1.51397 0.001,-1.51397 0.50139,0.8223 c 0.98672,1.61828 3.07745,2.45254 5.71729,2.28138 0.94467,-0.0613 2.05645,-0.28661 2.47063,-0.50079 z m -172.85861,-2.08848 v -2.4445 h -1.80121 -1.80121 v -1.5439 -1.54389 h 1.54389 1.5439 v -2.31584 -2.31584 h -1.5439 -1.54389 v -1.28658 -1.28658 h 1.67255 1.67255 v -2.4445 -2.4445 h -4.63168 -4.63168 v 10.03531 10.03531 h 4.76034 4.76034 z m 6.17558,-7.59082 v -10.03531 h -2.95913 -2.95913 v 10.03531 10.03531 h 2.95913 2.95913 z m 116.17037,9.45635 c 0.072,-0.31842 0.22935,-1.15792 0.34977,-1.86553 l 0.21895,-1.28658 0.16976,0.96493 c 0.0934,0.53071 0.23291,1.37021 0.31008,1.86554 l 0.14032,0.9006 h 2.93581 2.93581 l 0.14433,-0.83627 c 0.0794,-0.45995 0.48915,-3.73108 0.91061,-7.26917 0.42145,-3.53809 0.8351,-6.86711 0.91921,-7.39783 l 0.15293,-0.96493 h -2.57726 -2.57726 l -0.18221,1.47957 c -0.10022,0.81376 -0.2749,1.71115 -0.38818,1.99419 -0.17101,0.4273 -0.20873,0.37881 -0.22227,-0.28573 -0.009,-0.44019 -0.0899,-1.33758 -0.17995,-1.9942 l -0.16363,-1.19383 h -2.39101 -2.39101 l -0.15752,1.47957 c -0.31814,2.98808 -0.55157,3.22227 -0.76944,0.77194 l -0.2002,-2.25151 h -2.54272 c -1.3985,0 -2.54272,0.0875 -2.54272,0.19445 0,0.10694 0.46317,3.75395 1.02926,8.10446 0.5661,4.35051 1.02926,7.96835 1.02926,8.03965 0,0.0713 1.32941,0.12964 2.95423,0.12964 2.85334,0 2.9587,-0.0198 3.08505,-0.57896 z m 26.89713,-9.45635 v -10.03531 h -2.83048 -2.83047 v 10.03531 10.03531 h 2.83047 2.83048 z M 174.54089,77.376609 v -6.423236 l 2.38017,-0.07398 2.38017,-0.07399 V 68.61822 66.431037 l -8.68441,-0.06775 -8.6844,-0.06775 v 2.319263 2.319263 h 2.4445 2.4445 v 6.432891 6.432891 h 3.85973 3.85974 z m 135.34803,5.265314 v -1.15792 h 1.29474 1.29475 l -0.0725,-3.023459 -0.0725,-3.023459 -1.22225,-0.07843 -1.22225,-0.07843 v -1.00106 -1.001066 l 1.22225,-0.07843 1.22225,-0.07843 v -2.058525 -2.058525 l -1.22225,-0.07843 -1.22225,-0.07843 v -1.27248 -1.27248 h -6.17558 -6.17557 v 1.286578 1.286578 h -1.28658 -1.28658 v 3.087788 3.087788 h 1.28658 1.28658 v 1.15792 1.15792 h -1.28658 -1.28658 v 2.058525 2.058526 h 1.28658 1.28658 v 1.15792 1.15792 h 6.17557 6.17558 z M 162.44705,54.853046 c 0,-0.0701 -0.98423,-1.109466 -2.18718,-2.309709 -1.20295,-1.200246 -2.18718,-2.375505 -2.18718,-2.61169 0,-0.373164 -0.22755,-0.410117 -1.73688,-0.282056 -2.01546,0.171004 -2.63749,0.366754 -2.63749,0.829989 0,0.290425 -0.41203,0.611431 -2.30926,1.799097 -0.76985,0.481927 -1.64216,1.409321 -1.47904,1.572438 0.0894,0.08945 0.65998,-0.128143 1.26785,-0.483542 0.60787,-0.355399 1.59733,-0.793068 2.19881,-0.972597 0.60147,-0.179529 1.09359,-0.423881 1.09359,-0.543003 0,-0.277628 1.47278,-0.285183 1.58678,-0.0081 0.0472,0.114645 1.1279,0.722553 2.40161,1.350907 1.27371,0.628355 2.37374,1.211944 2.4445,1.296866 0.2796,0.335558 1.54389,0.63154 1.54389,0.361438 z m 146.41261,-4.672775 c 0,-2.344941 0.0253,-2.46222 0.4503,-2.089555 0.9875,0.865844 2.27561,1.316061 3.7954,1.326573 1.99296,0.01379 3.18699,-0.411368 4.31037,-1.534754 1.52298,-1.522982 1.60789,-2.194445 1.60789,-12.715348 0,-5.165611 -0.0885,-9.708325 -0.1967,-10.09492 -0.27616,-0.986812 -1.62748,-2.44917 -2.83019,-3.06275 -1.53048,-0.780788 -3.97002,-0.727747 -5.60773,0.121925 -1.20779,0.626627 -1.27203,0.634588 -1.27203,0.157643 0,-0.4796 -0.20941,-0.502311 -4.63168,-0.502311 h -4.63168 v 15.438938 15.438939 h 4.50302 4.50303 z M 173.18625,48.691152 c 0.88247,-0.398811 1.73142,-0.878064 1.88658,-1.065009 0.15514,-0.186945 0.79511,-0.416831 1.42213,-0.510859 0.62702,-0.09403 1.20335,-0.27339 1.28072,-0.398585 0.0774,-0.125191 0.42333,-0.227624 0.76879,-0.227624 0.34545,0 0.6281,-0.130708 0.6281,-0.290465 0,-0.19943 -0.39972,-0.237443 -1.27537,-0.121283 l -1.27538,0.169185 0.56776,-1.229624 c 0.53655,-1.162053 0.56775,-1.576074 0.56775,-7.53386 0,-6.247397 -0.006,-6.314564 -0.64329,-7.450138 -0.75133,-1.338362 -2.43974,-2.709762 -3.8019,-3.088068 -1.73644,-0.48225 -3.96139,-0.332978 -5.32474,0.357237 l -1.23708,0.626288 0.18134,-2.865762 c 0.0997,-1.57617 0.23836,-2.958023 0.30805,-3.070787 0.22614,-0.365906 1.32343,-0.216553 1.48404,0.201994 0.0859,0.223861 0.15619,1.150197 0.15619,2.058526 v 1.651506 h 4.50303 4.50302 v -1.625849 c 0,-5.891532 -3.67153,-8.892159 -10.5324,-8.607794 -4.56846,0.18935 -6.96418,1.524312 -8.56248,4.771249 l -0.84708,1.720843 v 10.426521 10.42652 l 0.72216,1.543894 c 1.72574,3.689402 4.5301,5.079568 9.95644,4.935579 2.59654,-0.0689 3.15573,-0.167373 4.56362,-0.803635 z m -30.5525,-2.58805 c 0,-0.212285 -0.11579,-0.385974 -0.25732,-0.385974 -0.14152,0 -0.0547,-0.219428 0.19299,-0.487618 0.24766,-0.26819 0.72179,-0.818202 1.05362,-1.222249 0.90273,-1.099219 2.68091,-3.173554 3.19209,-3.723733 1.06725,-1.14868 0.0219,-0.993617 -1.25059,0.185506 -1.49722,1.387356 -2.99988,2.746176 -3.61171,3.26599 -0.53692,0.456166 -0.57552,0.431052 -2.86775,-1.865539 -2.10281,-2.106818 -2.88441,-2.68539 -2.88413,-2.134945 6e-5,0.106143 0.63691,0.882631 1.41524,1.725533 0.77833,0.842899 1.41514,1.611177 1.41514,1.707287 0,0.09611 0.28948,0.364415 0.64329,0.596238 0.35381,0.231826 0.64329,0.592519 0.64329,0.801541 0,0.209023 0.10131,0.380043 0.22515,0.380043 0.12383,0 0.29462,0.347376 0.37954,0.771946 0.13071,0.653567 0.27375,0.771947 0.93277,0.771947 0.52035,0 0.77838,-0.12795 0.77838,-0.385973 z m 37.8254,-0.128658 c 0,-0.141523 -0.17369,-0.257316 -0.38598,-0.257316 -0.21228,0 -0.38597,0.115793 -0.38597,0.257316 0,0.141524 0.17369,0.257316 0.38597,0.257316 0.21229,0 0.38598,-0.115792 0.38598,-0.257316 z"
       id="path2707" />
    <path
       style="fill:#080e0f;fill-opacity:0;stroke:none;stroke-width:0.180121;stroke-dasharray:none;stroke-opacity:1"
       d="m 239.77008,99.244583 v -2.830472 h -4.63168 -4.63168 l 0.003,-2.38017 c 0.003,-2.35973 0.031,-2.465244 3.29924,-12.286822 l 3.29654,-9.906652 4.67755,-0.07013 4.67754,-0.07013 v 10.29843 10.29843 h 1.15792 1.15792 v 2.058525 2.058526 h -1.15792 -1.15792 v 2.830472 2.83047 h -3.3451 -3.34511 z m 0,-14.023703 V 78.1447 h -0.61112 c -0.45794,0 -0.6496,0.177379 -0.76459,0.707618 -0.0844,0.38919 -0.8986,3.573471 -1.80931,7.07618 l -1.65585,6.368562 h 2.42044 2.42043 z"
       id="path4643" />
  </g>
</svg>
